﻿<?xml version="1.0" encoding="utf-8"?>
<!-- (c) ammap.com | SVG map of Ireland - Low -->
<svg xmlns="http://www.w3.org/2000/svg" xmlns:amcharts="http://amcharts.com/ammap" xmlns:xlink="http://www.w3.org/1999/xlink" version="1.1">
	<defs>
		<style type="text/css">
			.land
			{
				fill: #CCCCCC;
				fill-opacity: 1;
				stroke:white;
				stroke-opacity: 1;
				stroke-width:0.5;
			}
		</style>

		<amcharts:ammap projection="mercator" leftLongitude="-10.617130" topLatitude="55.384293" rightLongitude="-5.429497" bottomLatitude="51.419835"></amcharts:ammap>

		<!-- All areas are listed in the line below. You can use this list in your script. -->
		<!--{id:"GB-NIR"},{id:"IE-CW"},{id:"IE-CN"},{id:"IE-CE"},{id:"IE-CO"},{id:"IE-DL"},{id:"IE-D"},{id:"IE-G"},{id:"IE-KE"},{id:"IE-KK"},{id:"IE-KY"},{id:"IE-LD"},{id:"IE-LH"},{id:"IE-LK"},{id:"IE-LM"},{id:"IE-LS"},{id:"IE-MH"},{id:"IE-MN"},{id:"IE-MO"},{id:"IE-OY"},{id:"IE-RN"},{id:"IE-SO"},{id:"IE-TA"},{id:"IE-WD"},{id:"IE-WH"},{id:"IE-WX"},{id:"IE-WW"}-->

	</defs>
	<g>
		<path id="GB-NIR" title="Northern Ireland" class="land" d="M599.25,152.79l-1.17,0.77l2.63,1.33L599.25,152.79zM605.28,182.24l0.66,-5.3l-5.12,-7.05l-1.21,-3.86l0.08,-5.43l-6.04,-6.9l-3.44,0.38l-2.34,-0.91l-0.09,1.65l-1.69,1.53l-1.05,-1.43l-1.59,1.25l-1.06,-0.66l-4.12,0.5l-3.13,-2.25l-6.78,3.4l-6.28,5.41l-3.16,1.07l-1.29,3.9l-2.23,0.84l-0.93,-0.64l1.57,-4.94l-1.49,-0.89l0.43,-2.31l2.18,-5.09l5.4,-4.53l0.83,-1.91l11,-4.17l4.36,-3.95l2.45,-4.4l-0.21,-7.85l-4.22,-8.53l-4.13,-2.28l-0.28,1.4l-1.77,-1.05l-1.9,1.96l-1.89,-3.98l-3,-2.97l-0.59,-3.52l-1.94,0.1l-2.16,-1.74l-2.29,-6.64l-2.6,-4.07l-1.92,-1.72l-2.3,0.1l-1.12,-2.23l-2.67,-0.35l-0.42,-1.24l1.69,-3.63l1.66,-8.81l-3.49,-2.13l-5.63,1.32l-1.66,-1.26l0.38,-5.27l1.96,-3.84l-0.61,-5.31l1.87,-2.85l-0.89,-4.93l-2.05,-1.24l-1.59,-4.73l-6.16,-2.49l-2.65,-3.24l-2.05,-0.04l-2.61,2.61l-6.68,2.06L511,41.85l-2.27,0.22l-4.91,-2.69l-1.87,-0.53L497,41.58l-0.65,-0.98l-4.62,-0.65l-1.47,-2.31l-1.9,-0.16l-5.56,3.7l0.4,1.69l-1.88,1.8l-11.84,2.41l-1.94,-1.57l0.85,1.8l-0.57,0.98l-6.99,1.96l-1.22,3.83l-18.58,0.2l-6.75,-4.57l-2.32,-0.49l0.58,2.98l-0.93,6.68l-2.26,7.51l-3.09,1.81l0.34,4.92l-3.5,3.52l0.6,0.94l-10.43,2.52l-2.12,-0.85l-0.15,-2.21L410,76.45l-3.27,-0.26l-3.36,1.08l-1.03,-0.81l-1.34,0.65l-0.11,1.65l-2.06,0.96l-0.79,-4.63l0,0l-1.61,0.61l-1.74,2.78l-1.4,-1.26l-2.29,2.11l-3.36,-1.02l-5.65,6.68l-0.77,2.5l1.26,1.79l-1.86,2.98l0.9,1.99l-0.63,3.37l1.18,2.13l-4.61,0.75l-1.4,1.26l-0.64,8.08l1,5.16l-4.3,9.26l-5.25,3.33l-2.29,3.13l-0.36,6.6l1.39,1.65l-1.11,1.79l-3.58,-0.28l-0.08,-1.47l-1.48,1.35l-3.13,0.16l-2.64,-1.41l-4.38,3.75l-6.89,3.1l-1.24,1.89l-6.42,-2.7l-1.88,-3.04l-1.73,-0.4l-5.45,6.81l-4.58,0.26l-0.02,1.33l2.37,1.25l-1.68,2.64l1.12,3.16l5.2,2.17l0.58,3.94l2.88,-0.42l1.96,-2.31l4.72,4.52l1.39,-0.52l2.34,1.09l3.84,-2.85l-0.01,2.73l1,1.31l-1.18,1.33l-4.98,1.61l-1.63,2.47l-3.64,1.15l-0.61,2.33l-3.49,2.69l0.85,2.19l-2.59,2.05l-1.53,-0.64l-10.75,0.66l-1.96,-2.89l-2.07,0.96l-2.26,-0.38l-4.18,7.7l-0.3,4.07l-4.5,-0.14l-3.62,2.38l-0.04,1.2l-4.28,-0.06l-2.9,1.06l0,0l3.9,2.62l-2.04,2.56l7.9,6.96l3.45,6.88l3.41,2.52l3.95,-0.24l-0.1,1.82l5.98,8.44l0,0l3.1,0.54l1.46,1.77l1.08,-1.28l1.37,0.38l0.72,1.52l2.55,-0.22l-1.37,1.46l-0.29,2.57l1.52,2.45l0.5,8.84l4.99,2.91l1.08,-1.01l6.4,-0.84l1.61,1.61l5.81,-0.8l1.24,4.85l1.96,-0.97l3.65,3.26l0.7,3.76l2.36,1.97l2.85,0.12l1.29,2.7l2.06,1.31l2.32,-2.5l5.75,1.79l1.4,-3.52l2.73,-1.91l3.69,-0.87l0.51,0.97l-2.04,2.25l0.55,0.64l5.58,-0.58l-2.3,3.65l3.48,-2.13l1.36,1.19l0.51,2.26l2.46,-1.93l0.46,1.33l0,0l1.47,-0.24l0.09,-0.97l-1.35,-2.68l-1.07,0.12l-1.14,-1.57l3.48,-4.57l2.03,-0.76l1.33,0.95l-0.64,2.7l-1.74,1.55l1.74,1.65l-2.63,1.13l1.1,2.03l2.08,-0.08l0.19,-1.37l1.9,-1.49l-0.36,-1.93l1.17,-2.82l1.98,-1.87l-1.8,-2.72l0.08,-2.17l2.39,-0.32l-0.56,-1.07l-1.35,0.04l0.42,-1.07l1.96,-0.02l0.31,-1.45l2.82,-0.7l1.52,-1.67l2.69,1.33l2.31,-1.04l-0.07,-3.03l-1.03,-1.18l1.39,-2.27l-2.02,-3.51l-1.95,0.1l0.63,-2.15l-4.3,-2.25l1.47,-3.15l1.94,-0.16l0.38,-2.37l-1.08,-3.07l4.06,0.72l3.77,-3.45l1.95,-0.26l-0.76,-2.62l2.85,-2.28l3.73,-6.34l3.03,-1.8l2.68,1.52l0.36,1.26l2.04,-0.44l2.16,1.5l0.75,1.66l3.42,1.92l-0.15,1.24l1.23,-0.52l1.01,0.82l1.05,4.57l2.33,0.76l2.87,6.73l0.33,4.27l-0.95,0.72l0.16,1.56l-0.82,-1l-0.79,0.4l0.27,1.16l2.73,3.03l1.21,-0.38l1.25,1.1l1.38,7.01l1.76,0.7l-0.06,1.47l3.07,2.89l2.34,0.26l1.73,2.96l2.29,0.14l2.26,-3.74l4.93,2.17l3.52,7.79l-2.49,5.96l-1.18,-0.24l2.05,5.16l-1.88,0.42l0.42,2.98l-1,2.96l1.99,0.61l2.86,4.38l2.68,-1.21l0,0l1.25,-2.12l3.8,0.87l3.03,-1.35l2.3,0.97l1.48,-1.94l2.55,-0.6l-0.86,-1.05l0.56,-1.27l2.44,1.03l1.79,2.86l3.41,-0.97l2.96,0.58l0.73,-1.53l2.08,-0.81l-0.02,-8.22l2.74,-0.08l0.56,3.71l1.46,0.58l2.79,-3.51l1.28,-0.14l2.28,1.99l0,0l7.35,0.08l1.45,1.15l0.93,3.91l2.22,1.53l8.18,0.73l2.37,2.99l-2.8,-0.2l-0.93,1.74l5.48,3.35l4.6,-3.01l2.59,-3.65l4.21,-1.21l1.27,-2.98l6.6,-5.74l2.74,-11.68l-0.33,-4.22l-1.8,-3.54l1.15,-2.21l5.92,-4.72l-0.82,-2.43l-1.76,1.04l-0.79,1.85l0.06,-2.27l2.17,-1.59l2.46,-4.86l0.27,4.72l-1.99,0.3l1.47,2.73l7.44,-0.74l3.11,-1.37l0.92,0.84l3.25,-0.28l1.69,0.5l2.31,4.5l2.75,-3.19l-0.9,-2.85l0.91,-1.16l2.17,3.13l0.86,-0.42l0.97,-2.19l-0.58,-1.06l1.66,0.5l3.6,-4.42l1.68,-4.49l2.6,-1.36l-1.89,-0.94l-1.04,-10.08l-1.41,-1.2l-0.62,2.04l-1.01,-1.38l0.49,-2.14l-4.98,0.78l-4.01,2.9l-3.64,-0.64l-0.25,-1.3l3.5,-1.68l-0.51,-0.64l1.91,-3.12l-0.12,-5.72l1.4,0.22l0.23,-1.1l-2.25,-3.7l1.03,-0.4l0.08,-1.76l-1.88,-0.92l1.17,-0.92l-0.96,-0.16l1.08,-1.42l-1.1,-0.82l0.75,-0.92l-1.13,-1.7l-1.19,1.32l-1.18,-1.46l0.28,-2.22l1.2,-0.1l1.38,-2l-1.63,0.22l-6.04,-4.05l2.53,-1.52l-0.27,-4.4l1.91,-2.97l5.11,4.24l2.8,0.7l4.11,5.44l2.16,-0.28l2.86,9.28l-0.63,0.58l1.01,3.15l-1.08,1.38l0.92,0.64l-0.21,5.44l-0.51,1.18l-1.17,-0.7l0.22,-1.26l-1.91,1.04l-1.84,5.9l3.39,3.84l1.21,3.48l1.21,0.38l0.47,3.77l1.4,-0.28l1.26,2.58l0.69,-3.97l1.97,-1.78l-1.33,-0.96l0.41,-2.34l1.1,-1.4l1.08,0.4l1.17,-1l-0.47,-5.44l-1.71,-2.66l1.17,-1.92l1.57,-0.22l1.76,-3.86l0.48,-2.32l-0.75,-1.66l1.18,-1.92l-2.64,-1.38l-1.8,-6.42L605.28,182.24z"/>
		<path id="IE-CW" title="Carlow" class="land" d="M458.79,501.13L461.8,500.65L464.84,503.31L467.73,502.44L469.47,504.6L470.55,503.29L475.83,504.52L476.52,507.94L478.71,507.53L480.8,508.65L482.56,505.93L485.62,507.92L485.54,510.17L483.3,510.66L483.81,519.56L481.02,519.33L479.01,520.35L479.46,521.08L478.25,522.71L476.17,522.48L474.47,521.37L473.09,521.73L471.92,519.11L467.69,516.51L466.66,517.42L467.08,519.5L463.29,522.29L462.18,527.45L463.65,528.22L465.72,526.93L468.48,529.45L469.67,532.18L468.67,533.64L473.25,540.19L473.25,540.19L469.58,544.84L467.66,545.13L466.43,546.49L466.23,549.41L468.21,548.76L468.68,549.83L466.01,554.43L458.83,553.65L454.35,557.39L453.85,565.61L452.77,568.36L450.95,568.61L449.76,572.63L447.19,574.96L447.63,577.32L444,584.92L440.44,587.73L437.87,587.71L437.87,587.71L435.77,587.04L437.67,585.5L435.13,580.89L435.72,575.69L432.95,573.78L437.96,569.19L437.68,565.89L434.04,561.56L431.62,560.8L430.01,557.94L430.62,556.91L429.36,555.43L430.2,553.42L429.72,550.64L430.78,548.54L428.73,547.32L427.56,543.55L423.7,539.87L422.18,541.63L420.23,540.65L418.73,537.56L415.71,537.54L417.66,535.95L416.27,533.56L418.21,531.56L417.82,528.01L421.03,524.95L421.03,524.95L422.99,524.31L423.85,521.79L432.35,521.94L433.85,520.67L435.42,518.36L434.55,515.82L436.37,514.57L435.42,508.44L435.42,508.44L436.21,506.8L437.24,506.72L439.27,510.14L442.06,512.02L443.39,511.39L442.48,508.79L443.45,508.5L446.13,511.64L448.56,509.31L452.67,510.56L455.61,505.95L457.17,506.09L457.53,501.71z"/>
		<path id="IE-CN" title="Cavan" class="land" d="M317.54,228.09L320.65,228.63L322.1,230.4L323.19,229.13L324.55,229.5L325.28,231.02L327.83,230.8L326.47,232.26L326.17,234.83L327.69,237.28L328.19,246.12L333.19,249.03L334.27,248.01L340.68,247.18L342.29,248.79L348.09,247.99L349.33,252.85L351.29,251.87L354.94,255.13L355.64,258.89L358,260.86L360.84,260.98L362.14,263.68L364.2,264.99L366.53,262.49L372.28,264.27L373.68,260.76L373.68,260.76L373.68,260.76L373.68,260.76L376.41,258.85L380.09,257.98L380.61,258.95L378.56,261.2L379.11,261.83L384.69,261.26L382.39,264.91L385.87,262.79L387.23,263.98L387.75,266.24L390.21,264.31L390.66,265.65L390.66,265.65L391.14,268.03L394.52,267.99L397.5,270.39L399.67,270.35L399.22,268.7L400.89,269.73L402.02,268.92L410.17,272.63L413.95,270.01L416.86,270.83L418.11,272.87L422.37,269L425.97,269.62L424.98,273.03L426.75,273.66L427.92,276.28L430.27,277.07L432.07,280.88L435.23,282.39L437.03,286.19L440.83,287.08L443.97,291.74L448.14,302.54L454.2,303.29L455.88,305.26L455.88,305.26L455.09,306.94L453.83,305.92L453.39,306.67L452.13,311.64L449.63,310.6L450.34,309.27L448.81,308.98L445.92,311.43L446.91,312.37L446.27,313.16L442.06,313.99L437.3,310.48L435.72,310.48L436.82,313.78L433.18,316.03L431.37,314.86L432.26,319.5L433.45,319.7L433.81,321.55L438.3,326.91L437.23,328.55L435.53,328.45L434.99,330.85L436.14,331.7L434.49,332.45L432.75,330.54L429.92,333.87L428.66,332.41L428.34,335.44L423.3,333.32L416.01,333.4L415.11,330.32L413.19,330.44L410.8,328.12L407.63,330.3L405.45,329.65L403.29,331.45L403.1,334.12L396.12,332.25L394.86,328.92L392.17,326.18L388.19,328.75L388.19,328.75L380.5,333.3L380.5,333.3L379.87,330.6L374.24,328.16L372.63,326.09L373.76,324.84L372.42,317.98L366.76,316.05L364.65,317.9L360.04,318.49L361.4,312.75L363.06,313.18L363.71,310.26L362.9,308.03L361.08,307.65L360.79,308.62L360.2,306.29L356.75,301.53L356.75,301.53L359.29,297.75L358.69,295.46L360.19,293.75L358.22,291.64L359.05,289.62L358.46,285.16L356.82,283.89L356.25,285.42L353.31,283.97L352.9,282.66L354.22,280.8L353.12,279.87L351.86,280.54L351.45,277.81L348.57,276.7L345.66,272.2L342.5,272.59L341.97,270.31L339.85,268.05L336.25,267.51L335.01,265.88L333.1,267.65L332.64,269.56L331.35,269.58L328.08,266.58L328.93,265.41L324.1,262.11L324.52,260.76L322.73,258.49L317.25,253.74L312.76,253.2L310.61,250.94L309.21,252.05L306.34,252.03L305.96,249.41L307.41,246.7L304.71,242.06L305.08,240.83L306.62,238.51L311.3,239.13z"/>
		<path id="IE-CE" title="Clare" class="land" d="M184.55,454.2l3.93,-0.25l1.52,1.61l1.84,-0.21l-0.69,1.05l2.86,0.87l0,0l-2.1,0.6l-0.58,1.59l2.23,5.24l8.06,3.91l2.4,3.04l3.22,0.72l-0.65,5.01l1.82,3.97l-1.66,1.37l0.27,1.7l1.59,4.77l2.45,-0.44l0.75,1.72l1.07,-1.72l-0.44,-1.02l1.83,-0.71l0.82,1.66l4.95,1.18l0.85,-3l4.14,-2.65l2.68,-4.51l2.43,-0.17l3.63,-2.59l3.7,-0.37l1.33,1.2l7.72,-1.3l0.83,3.75l2.53,-0.17l0.41,1.95l2,1.12l0.84,4.85l2.3,-0.99l3.83,3.09l2.18,-1.39l1.87,-2.96l1.68,1.86l3.6,1.24l0.92,1.47l2.5,-2.96l2.86,0.37l0,0l0.68,1.47l2.69,0.73l0.32,1.06L272,501.15l-6.05,-0.35l-1.62,0.71l-1.62,7.46l-4.16,5.05l1.61,10.53l-4.47,6.68l0,0l-3.49,2.04l0.69,5.59l-1.23,2.34l-3.32,1.54l-0.64,3.44l-3.58,2.16l-1.13,4.13l-2.63,2.25l-1.38,-1.25l-7.76,-0.5l0.5,-3.13l4.25,-2.38l0,-2.47l-3.9,0.13l-3.25,2.76l-5.8,-0.86l0,0l-1.01,0.47l-10.82,-4.41l-2.75,-0.25l-4.88,1.75l-0.63,1.25l-3.88,-0.38l-0.63,-1.5l5,-3.13l-2.38,-4l0.25,-2.5l-1.5,-1l1.25,-2.5l-1.75,-1.25h-2l-6.38,3.5l-0.63,0.88l0.75,4.75l-4.38,7.26l-1.75,0.5l-0.88,3.13l-3.13,2.25l-1.13,2.75l-2.63,2.63l-12.39,1.75l-1.88,4l-1.38,0.63l-4.75,0.38l-0.75,-1.13l0.25,-1.38l5.51,-4.25l1.25,-2.88h-1.75l-0.38,1.63l-2.5,1.25l-13.76,2.63l-1.88,-1.38l-4.38,-0.13l-3.13,-2.13h-1.88l-1.63,-2l-0.25,-4.63l-0.5,-1h-1.38l-1.88,1.38l-0.25,1.5v1.63l1.75,-0.13l-0.25,2.38l-2.88,1.13l-1.38,1.25l0.25,1.25l-4.5,-0.5l-3.63,1.75l-3.38,0.25l-2.19,5.02l-3.15,-1.04l-0.07,1.3l-7.62,2.85l-4.08,-1.15l-2.06,0.19l-0.83,1.7l-2.63,1.22l-5.6,-0.82l2.12,-1.11l1.77,-2.55l2.81,-0.21l1.26,-1.36l-0.69,-0.86l7.06,-1.8l2.83,-4.73l6.66,-3.43l1.38,-3.03l3.03,-1.21l2.52,-3.11h3.39l-1.26,-2.44l1.14,-0.9l0.02,-1.52l3.69,-2.05l-2.09,-2.27l1.33,0.4l-0.47,-1.17l2.23,-0.27l0.26,-2.06l5.79,-1.58l2.82,3.15l0.44,-2.02l3.41,-0.67l0.79,-2.21l-1.13,-1.83l2.33,-1.27l-1.13,-6.25l3.72,-1.39l0.91,-1.83l-0.49,-1.14l2.85,-0.98l-0.3,-1.29l-1.94,-1l2.29,-1.97l0.45,-1.7l-1.66,0.13l0.96,-3.01l4.33,-2.31l3.17,-3.94l1.61,-0.5l0.64,-2.57l-1.63,-2.49l-4.44,2.03l-4.35,-0.79l-3.32,1.25l-1.18,-0.37l0.18,-1.8l4.85,-4.71l0.46,-3.73l4.4,-4.43l-1.89,-1.88l4.98,-6.15l0.85,-4.22l5.74,-4.17l2.54,-4.96l-0.44,-2.41l1.13,-2.44l2.45,-1.96l4.85,2.87l5.81,0.74l-1.57,0.17l0.31,1.03l3.21,2l6.78,-4.75l-0.72,1.11l1.41,-0.08l1.91,3.22l-0.28,-3.38l-1.73,-1.42l-1.87,0.64l-0.5,-1.13l-1.49,0.85l-1.71,-0.89l4.14,-1.82L184.55,454.2z"/>
		<path id="IE-CO" title="Cork" class="land" d="M140.64,778.68l0.26,1.01l-1.94,2.43l-2.37,1.57l-0.46,-1.68l-1.22,2.89l-0.75,-1.75l-0.86,0.24l2.27,-2.58L140.64,778.68zM147.22,771.66l0.91,0.24l0.57,3.27l-0.75,-0.37l0.26,1.01l-4.23,2.86l-0.35,-1.85l1.83,-0.86l-1.26,-1.66l1.42,-0.5l1.28,1.48l0.51,-0.69l-1.1,-0.52l-0.1,-1.49L147.22,771.66zM145.07,769.75l-0.69,2.56l-1.11,-1.1l-1.61,0.77l0.78,-1.38l0.51,0.5L145.07,769.75zM130.13,771.06l-3.5,0.5l5.76,-2.39L130.13,771.06zM136.97,768.01l-1.1,1.4l-0.65,-0.36L136.97,768.01zM140.25,767.38l-1.61,0.09l2.71,-1.35L140.25,767.38zM59.11,749.56l0.26,1.11l-8.64,4.44l3.67,-4.57L59.11,749.56zM102.36,743.77l-1.12,0.47l0.38,0.94l-2.55,0.6l-1.35,1.57l-1.22,-0.64l-4.09,1.41l-0.58,1.09l-0.22,-1.33l-3.17,0.56l-0.79,-0.67l2.23,-3.84l7.45,-1.05l1.43,1.14l-0.63,1.2l1.97,-1.74l3.45,-1.05L102.36,743.77zM138.65,732.68l-1.8,3.47l-3.49,-0.49l5.32,-4.47L138.65,732.68zM277.75,706.81l1.08,0.57l-1.03,0.49L277.75,706.81zM276.97,705.7l0.25,0.73l-1.47,-0.39L276.97,705.7zM169.42,619.57l0.88,-1.67l4.15,-1.16l0.1,-1.33l3.93,-2.78l0.46,-2l3.24,2.13l8.82,1.92l6.17,5.94l0.59,-0.49l-1.14,-3.43l12.09,-3.85l-0.84,-1.16l1.39,-2.95l0.76,0.78l2.11,-1.39l0.17,-2.48l2.57,-0.21l0.93,-2.52l1.98,-0.46l1.19,2.73l1.7,-2.55l5.11,2.76l7.13,-2.63l-0.04,3.77l1.58,2.69l3.27,1.26l0.77,-0.65l0.08,1.94l1.12,-0.27l3.53,6.02l3.17,0.08l1.88,3.2l4.22,2.15l7.98,-2.63l5.86,-0.34l0.56,-2.36l2.19,-0.8l0.21,-1.68l2.64,-1.62l1.25,1.98l1.94,-0.78l2.13,5.06l1.53,1.39l3.87,-1.9l7.29,1.73l0,0l0.82,2.45l1.61,-0.21l-0.71,1.96l1.26,4.62l6.57,2.22l-0.16,4.6l0,0l0,0l0,0l-2.46,1.23l0.91,0.55l-1.28,5.56l-2.89,0.61l-1.07,4.3l5.91,-0.82l1.52,0.38l0.68,1.65l3.07,-1.31l0.14,3.45l-1.43,-2.26l-0.58,1.08l1.75,2.35l2.61,0.59l0.52,1.52L308,656l1.64,5.68l-0.83,4.01l4.3,3.35l3.11,-0.19l-0.48,1.99l3.94,3.23l1.4,6.44l5.27,0.4l2.29,-0.95l1.6,4.74l0,0l-0.12,2.49l-2.74,1.94l-2.19,3.62l-2.51,0.72l0.14,2.3l3.85,1.36l0.58,1.56l-12.77,2.51l-5.52,3.24l0.02,2.22l0.01,-1.21l-1.03,0.43l2.8,3.13l-4.91,1.37l-1.57,1.39l-7.94,0.7l-3.62,3.56l-1.52,0.34l-0.49,-1.9l-1.84,-0.28l-6.94,0.9l0.6,-2.5l-1.73,-1.77l1.63,-1.98l1.85,-0.06l-0.78,-1.83l2.16,-1.28l5.07,-0.58l-1.89,-0.45l0.82,-1.79l2.02,-0.94l-10.94,0.73l-5.69,2.88l-1.94,-1.22l-1.25,1.62l-2.04,0.34l4.46,1.68l0.2,-0.92l1.19,0.7l0.91,-0.66l-0.5,2.86l-2.4,-0.47l0.24,0.81l3.37,1l-0.19,1.92l1.27,-1.35l1.05,0.21l0.21,1.92l-1.1,1.9l-3.57,2.95l1.78,0.94l-0.25,4.29l-1.1,0.19l-0.12,2.2l-2.21,-0.39l-1.1,3.17l-5.19,0.47l-1,2.44l-3.1,-0.45l-0.93,2.78l-1.45,0.66l-1.53,-1.22l-2.83,3.15l-1.96,-0.09l0.18,-2.72l-1.56,-2.67l-0.8,1.54l1.06,1.99l-0.69,1.05l-1.98,-1.46l0.8,1.24l-1.19,4.45l-2.32,2.53l2.59,2.92l-1.35,1.37l0.97,2.79l-1.4,-0.88l-0.61,-2.47l-1.46,-0.15l-0.13,-2.66l-2.05,-1.09l-9.09,1.76l-1.89,-6.34l0.26,3.11l-0.94,1.29l-2.26,-1.05l-1.28,2.1l-4.06,-1.35l-2.8,1.63l0.08,1.01l2.18,-1.97l2.68,1.44l4.93,-0.17l-1.91,3.66l2.69,1.69l-2.85,2.14l0.38,3.18l-1.53,1.67l-3.73,-1.22l-0.51,1.18l-1.03,-0.39l0.77,-1.74l-1.06,-1.89l-1.98,1.76l-3.38,-2.34l-4.97,0.43l-0.06,-3.6l-2.27,-0.06l-2.06,-1.93l1.26,3.28l2.13,-0.36l0.52,1.24l-1,1.11l-3.76,-1.63l-0.21,1.31l3.16,0.9l-0.21,2.87l-2.66,1.1l0.39,3.39l-1.13,-0.07l-0.08,0.99l-2.1,1.27l-1.06,-1.31l-1.45,0.24l-1.84,3.18l0.01,-4.73l-5.18,-2.45l-2.36,0.54l-0.99,-3.15l-0.3,1.67l1.76,2.6l-1.89,-0.08l-0.59,1.12l-2.05,0.45l-2.06,-1.57l0.83,1.42l-0.73,0.33l-2.72,-0.22l-2.69,-2.33l-1.94,0.22l-1.67,-3.28l0.58,4.1l2.3,0.11l0.49,-0.95l3.62,3.09l3.8,-0.88l-3.32,1.27l-3.88,-1.78l-0.44,0.97l1.15,2l-1.69,-0.26l0.37,0.8l-1.82,0.84l0.67,0.75l-1.89,0.94l-0.28,-1.59l-1.29,0.45l0.56,1.31l-2.24,0.9l1.28,-3.2l-0.79,-3.55l-0.92,1.03l1.14,0.21l-0.1,2.97l-2.24,1.96l-0.12,2.11l-1.74,-0.13l-1.41,1.93l0.69,2.06l-3.64,0.9l1.21,-1.76l-0.63,-0.95l-3.99,2.19l0.66,-3.1l-1.54,0.56l-0.02,0.92l-3.37,-2.3l1.81,2.8l-6.23,4.22l-2.06,-1.25l-1.95,1.2l-1.07,-1.08l1.87,-2.26l1.81,0.26l0.52,-3.74l-1.92,0.45l0.76,1.55l-2.03,1.4l-0.76,-0.62l0.56,-2.11l-1.22,0.04l2.08,-1.01l0.28,-1.36l-4.36,3.4l-0.94,-0.8l0.57,-2.73l-1.4,2.08l-0.67,-1.14l2.86,-2.28l1.35,-5.76l-2.19,2.49l-0.19,-2.21l-1.35,0.07l-0.26,1.46l-3.34,-3.61l0.23,2.23l1.41,0.37l-0.41,1.2l1.34,0.13l-2.45,3.16l-2.27,-0.97l-0.31,1.44l-1.37,-0.26l-4.35,1.94l0.28,-2.97l-1.6,0.09l-0.69,3.48l-4.79,1.08l0.06,-2.19L125.9,769l-2.37,1.07l2.11,-0.52l0.9,0.79l-5.35,1.18l1.56,-1.23l-1.96,-1.03l0.28,-1.61l-1.34,-0.17l0.06,-1.44l-1.05,1.23l-1,-0.77l-0.69,0.41l1.13,1.12l-0.75,1.76l-0.71,-1.12l-4.53,2l0.56,3.63l-5.37,2.33l5.6,-1.06l-4.63,1.47l-3.45,2.52l1.28,-2.41l-1.95,-2.02l1.97,-1.16l-0.47,-0.52l-1.77,1.4l-2.09,4.26l-2.64,0.21l1.49,-4.56l-3.53,-1.53l4.89,-2.47l5.09,-4.97l1.31,0.17l0.71,-1.03l3.5,0.26l4.18,-3.55l1.75,0.67l0.26,-0.75l-1.26,-0.02l2.01,-1.44l0.06,-2.32l3.46,-1.57l-0.67,-0.9l4.37,-1.97l0.91,-2.27l3.95,-0.75l1.05,-1.16l-1.27,-0.56l0.53,-0.88l-2.66,1.82l-2.67,-0.45l-4.06,2.9l-1.85,-0.6l-2.55,3.15l-1.45,-0.28l-1.56,1.24l-1.1,-0.41l-1.49,1.61l-2.4,0.22l-0.64,1.85l-1.02,-0.8l-8.95,4.15l-4.13,-0.08l7.8,-5.17l-0.78,-0.82l0.88,-1.09l7.64,-3.78l2.5,-2.49l12.31,-5.42l2.38,-2.01l7.13,-1.93l2.53,-2.96l2.73,-0.21l0.54,-1.76l2.03,-0.7l-2.18,-0.77l2.48,-4.96l-2.09,1.3l0.91,-1.93l-0.75,-0.54l-2.99,2.91l-2.27,-0.38l-1.12,-2.22l-2.2,-0.28l0.5,-2.12l-1.38,-1.99l-1.81,0.92l1.01,1.18l-1.74,1.35l1.03,0.06l-0.4,0.7l1.2,1.11l-0.67,1.86l-2.72,1.73l-0.9,-0.96l-0.71,1.88l-4.28,3.45l-6.02,2.03l1.03,-2.53l-1.28,1.09l-4.48,0.47l-1.17,-3.15l-1.17,1.33l1.21,1.99l-0.75,1.2l-1.66,-0.56l-2.17,1.67l-3.51,0.21l-2.1,1.16l-0.89,-0.92l-3.43,1.09l-2,-0.53l-1.56,1.37l-2.75,-0.94l-1.4,3.13l-2.6,0.15l1.66,0.71l-0.04,1.86l-1.32,1.48l-3.3,-0.08l-0.15,-1.03l-8.73,6.13l-0.9,-0.8l1.18,-0.62l-2.04,0.47l1.21,-1.18l-0.51,-0.54l-7.16,1.09l-0.97,-0.64l-5.21,3.73l2.13,-3l0.12,-1.59l-1.71,-0.73l0.15,-0.99l1.68,-1.07l2.48,1.5l3.55,-2.25l1.25,0.92l3.06,-2.51l-1.91,-0.13l1.13,-1.07l0.06,-2.63l-1.6,0.47l-0.37,-1.22l-2.99,-0.19l-0.61,-0.92l1.61,-1.93l1.94,0.47l0.55,-1.01l2.02,1.5l2.69,-1.76l2.55,0.79l1.38,-2.2l3.11,-0.19l0.89,-3.42l2.06,-1.8l-1.4,-0.54l-2.88,1.15l0.07,-0.81l-2.73,-0.06l3.01,-3.36l4.23,-1.54l1.69,0.3l-0.06,-0.85l5.25,-3.48v2.99l-1.18,1.43l4.49,-2.18l0,0l2.53,3.38l-1.17,1.69l2.3,1.09l-1.07,4.28l1.38,1.07l3.64,-0.88l3.55,-3.51l-0.05,-1.41l4.29,-3.66l6.6,-1.63l1.27,-2.9l4.2,-4.31l4.88,0.34l1.52,-1.09l1.2,0.58l1.6,-0.71l2.15,0.79l7.19,-1.39l1.82,-1.19l1.2,-4.57l3.62,-0.11l2.19,-2l2.99,0.24l1.33,-1.49l2.25,-0.55l0.55,-2l2.76,-2.75l-0.02,-1.36l3.18,-3.17l-2.04,-1.62l0.7,-1.92l-1.88,-1.98l-0.27,-4.04l4.9,-2.57l0.87,-1.96l5.04,-1.13l2.17,-1.46l4.33,-0.62l2.25,0.72l1.92,-2.42l-0.96,-1.98l-3.94,0.3l-2.06,-4.25l-3.23,0.68l-1.37,-5.07l1.49,-3.9l1.94,-0.66l0.99,-1.8l-3.29,-2.03l-0.13,-2.24l-2.03,-2.79l0.38,-1.25l-1.41,-3.73l0.7,-5.41l-1.6,-1.42l-0.79,-5.05l-2.66,-3.7l0.3,-4.88l3.02,-1.94l-0.17,-2.42l3.77,-0.46l0.56,-1.64L169.42,619.57z"/>
		<path id="IE-DL" title="Donegal" class="land" d="M259.88,96.41l0.43,2.09l-2.23,-0.18L259.88,96.41zM257.96,92.47l1.42,2.01l-2.43,-0.59l0.3,-1.87L257.96,92.47zM249.49,86.12l4.19,2.05l-0.52,1.64l1.38,4.18l-3.63,-0.02l-0.47,0.97l-0.67,-1.01l-4.56,-0.39l0.03,-1.26l0.99,-0.3l-0.48,-2.31l1.89,-1.32l-1.63,-2.68l1.81,0.45l0.58,-1.85L249.49,86.12zM263.16,82.67l0.21,3.23l-1.23,-2.58l-1.82,-0.32l1.91,-1.36l-1.1,-3.62l1.06,0.81L263.16,82.67zM368.1,71.59l2.58,-0.1l2.76,2.28l1.92,4.47l-5.11,0.67l-1.22,-1.63l-2.15,-0.55l-1.02,-2.78L368.1,71.59zM268.93,69.3l1.69,2.01l-1.24,0.89l-2.29,-1.28l1.15,-0.37l-0.81,-1.06L268.93,69.3zM282.47,32.88l1.54,-0.1l-0.34,0.82l1.67,0.04l2.03,2.31l1.25,0.27l0.27,-0.96l0.04,1.16l-2.31,0.63l-1.6,-2.19l-2.58,0.12L282.47,32.88zM385.56,11.36l2.92,0.94l0.65,1.41L395.6,14l0.82,1.19l3.17,0.2l1.46,1.58l4.37,1.02l2.67,2.09l-1.58,0.94l1.76,0.68l-0.74,1.76l2.22,2l0.14,2.86l2.54,0.98l1.24,-0.65l6.23,4.48l3.44,-0.33l0.51,1.12l3.02,0.69l0.57,2l6.18,0.51l3.55,3.35l-0.26,2.16l-3.41,3.27l-7.94,4.24l-3.09,0.69l-12.95,7.74L404.22,65l-0.76,2.54l-5.41,7.52l0,0l-1.61,0.61l-1.74,2.78l-1.4,-1.26l-2.29,2.11l-3.36,-1.02l-5.65,6.68l-0.77,2.5l1.26,1.79l-1.86,2.98l0.9,1.99l-0.63,3.37l1.18,2.13l-4.61,0.75l-1.4,1.26l-0.64,8.08l1,5.16l-4.3,9.26l-5.25,3.33l-2.29,3.13l-0.36,6.6l1.39,1.65l-1.11,1.79l-3.58,-0.28l-0.08,-1.47l-1.48,1.35l-3.13,0.16l-2.64,-1.41l-4.38,3.75l-6.89,3.1l-1.24,1.89l-6.42,-2.7l-1.88,-3.04l-1.73,-0.4l-5.45,6.81l-4.58,0.26l-0.02,1.33l2.37,1.25l-1.68,2.64l1.12,3.16l5.2,2.17l0.58,3.94l2.88,-0.42l1.96,-2.31l4.72,4.52l1.39,-0.52l2.34,1.09l3.84,-2.85l-0.01,2.73l1,1.31l-1.18,1.33l-4.98,1.61l-1.63,2.47l-3.64,1.15l-0.61,2.33l-3.49,2.69l0.85,2.19l-2.59,2.05l-1.53,-0.64l-10.75,0.66l-1.96,-2.89l-2.07,0.96l-2.26,-0.38l-4.18,7.7l-0.3,4.07l-4.5,-0.14l-3.62,2.38l-0.04,1.2l-4.28,-0.06l-2.9,1.06l0,0l-5.14,-1.72l-1.71,2.34l-2.06,-0.02l-4.08,-3.14l0,0l0.92,-1.1l-0.57,-0.98l2.06,-0.74l1.1,-4.19l-1.35,-2.97l6.46,-4.33l-0.86,-5.16l1.57,0.22l4.62,-4.64l-0.12,-5.71l1.76,0.32l-0.79,0.36l0.22,0.78l0.84,-0.38l-0.72,1.11l1.2,1l-0.49,1.43l1.52,-0.4l0.33,-2.95l2.13,0.58l-0.41,0.9l1.31,-0.4l0.15,-1.21l-2.11,0.26l0.91,-1.25l-1.95,0.26l2.74,-1.93l-4.18,0.3l2.55,-1.05l1.4,-3.7l-2.83,0.82l0.06,1.39l-3.28,2.96l-0.38,-2.84l1.47,-0.99l-2.23,0.5l-0.78,1.01l0.89,0.84l-1.63,-1.01l-5.63,4.54l-7.33,3.38l0.82,-4.24l2.18,-2.71l-1.82,-2.17l-6.35,3.3l-1.12,3l-4.56,4.26l-4.41,1.43l-1.27,1.17l0.1,1.35l-2.66,1.39l2.03,-2.77l-0.34,-1.35l5.81,-2.01l2.43,-2.95l-1.31,-3.2l0.41,-1.43l-1.06,1.03l-0.28,-1.05l-2.99,3.6l-1.91,0.4l2.22,-6.88l-0.97,-0.02l-2.09,3.12l0.24,2.45l-3.51,3.78l-1.19,-0.2l0.48,-1.87l-0.81,-0.7l1.26,-1.69l-0.33,-2.11l-6.58,3.44l-4.95,1.15l-0.93,1.51l-0.63,-0.46l0.83,-1.51l-4.26,-0.46l1.99,-1.65l-2.16,0.72l-1.28,-1.17l0.25,-1.59l-1.45,-2.62l1.45,5.47l-5.79,0.66l-0.59,-1.65l0.92,-1.01l-1.71,-1.97l-9.44,-2.94l-0.04,-1.63l-0.79,1.05l-0.66,-1.03l-0.72,0.91l1.17,-5.9l-2.57,-1.03l0.1,-1.77l1.25,-0.65l1.49,0.95l2.13,-1.53l1.96,0.38l1.52,-0.97l-2.02,-0.1l-0.04,-3.14l1.04,-0.87l-0.67,-1.05l4.69,-1.23l0.25,-1.81l1.7,-1.77l1.9,0.3l0.68,-2.02l8.49,-1.66l6.92,2.7l2.46,-1.05l0.02,1.78l9.33,1.21l-3.69,-0.77l-2.27,-2.52l-2.37,-0.71l-1.34,0.59l-3.49,-2.16l0.08,-1.33l3.57,1.03l1.58,-1.01l1.57,0.4l0.54,-0.95l1.2,0.32l1.97,3.81l3.18,1.86l1.81,-2.16l-3.27,-0.87l0.3,-0.99l-2.4,-1.88l0.87,-0.34l-1.03,-1.43l-4.57,0.04l0.23,-1.66l-1.8,-1.19l-1.8,0.18l0.44,-2.1l-4.64,-0.87l3.42,-1.37l2.93,1.5l0.78,-0.83l-0.56,-1.74l2.46,-1.66l4.63,1.74l2.73,-2.47l1.76,1.11l1.19,-1.21l-0.03,1.7l1.75,0.63l0.12,-6.81l-0.76,-0.79l2.43,0.49l1.92,-1.46l3.58,1.86l-0.47,-1.23l2.08,-1.64l-4.02,-0.69l-0.29,-3.22l-2.22,1.74l-1.87,-1.23l0.61,3.42l-1.13,0.91l-3.02,-3l-3.78,-1.23l-1.62,-1.56l-0.19,-2.37l1.26,-0.12l0.41,-1.22l-1.65,-1.22l0.48,-1.62l2.15,-0.2l0.14,1.09l-1.64,0.77l2.16,1.3l-0.16,-1.11l2.78,-0.08l2.5,-1.64l0.82,0.97l1.82,-1.88l-5.23,-2.57l-0.6,0.47l-0.64,-2.01l-3.06,-3.04l0.97,-0.75L258.54,89l0.37,-1.62l3.27,-1.04l0.7,0.32l-0.82,0.67l2.6,0.95l-0.93,-2.72l1.8,-1.89l-1.54,-1.83l0.79,-1.5l0.9,-0.37l1.36,1.95l1.31,-1.63l2.24,0.26l0.84,-1.75l-0.96,-2.62l2.92,-1.77l0.64,-1.95l-0.68,-2.01l1.35,-0.85l-0.26,-3.78l2.38,-2.71l-0.49,-2.77l1.35,-1.32l-0.85,-1.02l1.25,-1.63l6.08,1.92l1.64,-0.69l0.79,1.26l5.28,0.31l1.65,-1.12l0.51,-2.53l1.66,-0.02l0.54,1.49l-3.64,2.75l0.59,0.81l-0.9,2.4l1.16,0.47l0.93,-1.42l1,0.71l-0.23,1.67l0.78,-0.81l-0.48,-3.67l1.64,0.92l0.63,-2.93l-0.77,-1.3l6.32,-1.06l2.38,-2.36l1.65,0.67l1.29,-0.65l1,-2.12l-1.12,-0.94l1.29,-1.47l-1.26,-0.43l0.86,-3.22l2.89,-0.51l1.25,-1.8l1.9,2.73l2.93,-0.43l0.32,1.06l-0.53,2.45l-1.85,1.35l-1.74,-0.08l-0.96,1.59l3.06,-1.06l2.97,1.98l2.15,-2.61l2.01,0.84l-0.55,2.39l2.5,0.59l-4.22,3.67l4.68,-2.57l2.23,0.84l-1.26,2.75l-3.04,0.69l-1.78,2.79l2.15,-1.43l1.34,0.33l0.23,-1.14l1.26,1.67l-0.34,1.63l1.49,-0.26l-0.51,-2.24l2.4,-2.08l-1.16,-0.96l2.03,-2l0.75,-2.87l-1.53,-3.2l-1.41,1l-2.68,-2.45l0.73,-5.82l1,0.88l1.68,-1.16l1.83,1.39l1.17,-0.24l-0.44,-2.43h1.59l0.36,-2.59l1.74,0.69l0.4,-1.59l-0.28,6.08l-2.27,1.82l0.05,2.33l-1.08,1.26l1.88,2.2l-0.5,1.96l1.2,0.06l-0.04,-1.35l0.68,0.88l0.42,-0.96l2.05,0.33l0.49,-1.18l1.06,0.75L340,52.62l1.6,0.82l0.09,-1.67l2.65,4.22l-1.11,-3.1l1.98,1.9l2.59,4.75l-2.93,8.83l1.61,-1.57l0.53,1.67l3.46,-12.15l-1.66,-1.45l-0.35,-3.51l-0.8,1.16l-1.23,-1.1l0.7,-1.94l-0.84,0.71l-1.43,-1.41l0.33,-1.37l1.63,-0.06l-1.19,-2.88l0.77,-1.73l-0.91,-0.9l-1.68,1.76l0.36,3.18l0.93,-0.06L344,48.19l0.42,2.24l1.6,1.04l-0.75,2.75l-3.96,-3.53l-0.38,-1.16l1.25,0.51l0.32,-1.35l-1.69,-0.37l-0.21,0.9l-2.11,0.55l-1.34,-2.59l-1.8,-0.55l-0.41,-1.77l4.58,-4.59l0.96,0.29l-0.92,-1.06l1.13,-1.39l-0.7,-1.74l1.66,1.55l1.26,-1.2l0.41,1.61l3.03,-0.16l1.2,-1.41l-0.25,-1.88l1.47,0.37l2.76,-2.9l2.72,-0.02l-0.4,1.1l0.94,0.47l2.82,7.35l-0.57,3.16l-1.97,2.79l2.61,3.41l1.24,-0.33l2.39,1.75l-0.11,2.71l3.76,4.91l2.15,0.92l0.48,3.09l-1.43,1.61l0.57,2.14l-1.04,2.16l-5.72,2.52l-1.43,1.59l-0.06,2.42l-3.22,0.83l-1.8,2.28l0.17,1.46l1.7,-1.65l1.75,0.71l3.62,-2.21l1.17,0.3l0.92,2.15l-0.05,1.75l-2.61,3.01l-6.6,4.63l-2.1,5.5l-2.9,1.85v1.6l0.77,-1.18l3.96,-1.07l0.76,-1.6l1.43,1.48l3.21,-6.17l6.63,-6.09l1.43,0.85l1.24,-0.93l0.46,-3.31l2.05,0.1l1.63,-1.26l0.43,0.73l2.61,-0.37l1.06,-1.34l-1.42,-5.31l-2.55,-2.77l0.16,-2.34l2.46,-3.89l-0.48,-3.5l-1.39,-0.2l-1.52,-3.61l-1.94,-1.04l-1.99,-4.63l-4.09,-2.24l1.74,-1.37l-1.14,-0.88l1.42,-4.33l2.09,-2l-1.74,-1.9l2.34,-1.63l0.52,-1.74l0.05,-1.23l-1.94,-2.1l0.62,-1.12l2,-0.8l4.11,1.76l0.45,-2.96l1.73,1.19v1.49l2.55,0.61l-0.57,-1.53l1.75,-0.9l4.08,-0.04l0.98,-4.7l1.34,-0.53l3.17,1.06l1.31,2.04l1.29,-0.33l1.01,2.04l-1.03,1.04l-3.99,-0.49l-0.05,1.35l3.72,-0.1l3.37,2.15l1.87,-1.45l0.71,1.08l2.19,-0.33l-2.44,-2.29l1.81,-1.04L395.85,29l-6.3,-3.91l-0.5,-2.8l-2.13,-1.51l0.49,-5.42l-2.78,-0.27l-2.18,-3.05l-1,-0.04l3.33,-1.5L385.56,11.36z"/>
		<path id="IE-D" title="Dublin" class="land" d="M528.46,403.37l0.59,-0.31l1.7,3.63l-0.42,-8.42l-9.37,-4.22l5.4,-0.53l0.86,-1.35l2.09,1.37l-1.69,2.91l2.25,-1.25l0.93,-3.21l2.6,-3.19l-1.29,-0.49l-0.94,-2.8l-1.61,-0.08l1.06,2.15l-4.51,0.02l-0.59,-1.13l4.58,-1.74l1.92,0.59l3.94,-1.84l-1.41,-2.08l1.04,-1.84l-0.85,-0.67l0.71,-0.61l-0.5,-2.8l-1.55,-1.29l-0.16,-3.57l-5.67,-0.33l-2.07,-3.84l-2.68,-2.35l-0.09,-2.24l-2.92,-0.61l0,0l-1.91,0.94l-1.14,-1.24l-2.15,0.61l-1.62,3.38l0.04,3.31l-4.25,2.41l-1.18,1.84l-3.29,0.22l0.15,-1l-1.6,-1.14l-3.49,-1.1l0.22,2l-4.14,2.76l-1.22,4.51l1.33,0.53l1.6,3.02l4.91,2.15l-0.13,1.6l2.6,1.47l0.86,4.09l-1.81,2.64l-0.01,3.58l-4.09,1.68l-2.75,-0.37l-0.97,4.53l-4.15,5.48l0,0l-2.43,5.01l-1.52,0.68l-1.1,7.52l-2.18,-0.49l-1.61,1.46l0.36,0.72l-1.16,0.93l1.34,1.17l-0.15,2.39l-2.1,1.93l3.52,3.15l1.16,-0.35l-3.25,2.2l0.26,1.13l1.78,-0.12l5.28,2.18l-0.37,0.58l0,0l1.32,1.48l1.27,-0.88l3.76,0.12l2.1,3.93l3.46,-0.93l-0.13,4.43l4.54,2.74l2.64,-3.17l0.23,-5.13l0.96,-0.7l7,4.33l3.65,-1.57l0.27,-1.24l2.97,-0.58l2.31,3.17l3.07,0.83l3.99,-2.45l0,0l-0.97,-9.27l2.32,-2.2l-1.53,-2.92l-2.73,-1.01l0.32,-2.12l-0.56,1.69l-1.42,-1.01l0.82,-0.99l-2.2,1.5l-5.84,-3.93l-0.94,-3.6l4,-0.64l0.14,-0.86l-7.2,-0.84l4.96,-0.12l-0.41,-1.21l-3.92,-0.96l0.73,-0.72l4.25,0.92l3.9,-4.2l3.16,-1.71l3.06,0.7l0.59,2.54l1.53,1.56l3.69,0.12l1.08,-3.84l-2.51,-2.54l-1.11,0.82l-4.86,-0.59L528.46,403.37zM544.59,388.59l-0.92,2.13l-2.8,-1.31l0.57,-1.74L544.59,388.59zM529.54,410.57l1.59,0.08l-4.54,2.96l-1.6,2.22l-0.76,-0.62l2.24,-3.04L529.54,410.57z"/>
		<path id="IE-G" title="Galway" class="land" d="M134.04,471.8l1.5,0.16l0.58,1.74l-2.73,1.88l-3.24,-0.68l1.23,-2.92L134.04,471.8zM128.24,464.9l0.9,2.91l-1.69,2.62l-4.08,1.16l-0.14,-3.08l1.97,-2.98L128.24,464.9zM104.1,455.88l2.02,0.16l1.08,3.16l5.66,-2l2.06,1.67l3.45,0.29l-2.39,3.35l1.98,1.75l0.9,-0.54l-0.37,1.07l1.11,0.41l0.55,-0.68l-0.75,-0.35l1.76,-0.95l-0.75,4.05l-2.83,-0.52l-3.43,-3.02l-2.16,-0.06l-5.67,-3.28l-8.1,-2.66l2.36,-2.39L104.1,455.88zM197.47,446.84l-0.59,-0.6l1.98,0.62l-4.9,0.78l2.08,-1.67L197.47,446.84zM193.02,440.97l-2.18,1.61l1.71,0.68l-3.27,-1.07L193.02,440.97zM107.85,437.97l-1.5,0.14l-0.06,-0.74l1.07,-0.35L107.85,437.97zM110.05,436.5l0.84,0.49l-0.19,3.48l-1.42,-0.97l-2.86,0.86l0.09,-1.03l2.15,-0.45l-0.47,-2.24L110.05,436.5zM107.76,433.95l0.91,2.41l-0.98,-0.41L107.76,433.95zM107.1,434.42l-0.78,-0.14l0.4,-1.44L107.1,434.42zM111.78,430.35l1.25,0.86l-1.7,0.72l-0.76,-1.65l0.68,-0.7L111.78,430.35zM118.45,429.74l0.67,1.79l-1.53,-0.37l2.34,3.95l-0.64,5.06l-2.25,0.93l-1.77,-0.47l0.29,-0.62l-2.43,0.8l-1.95,-3.44l1.66,-1.65l-1.76,-0.27l-0.56,-1.91l4.72,-1.4l0.06,-1.93L118.45,429.74zM123.02,429.49l-0.68,1.73l-0.41,-1.6L123.02,429.49zM124.34,429.51l-0.86,-0.02l0.65,-0.97L124.34,429.51zM100.65,426.32l0.43,0.66l-2.09,1.77L100.65,426.32zM116.33,425.38l2.18,1.07l1.95,-0.9l0.82,1.44l-2.82,1.81l-3.57,-0.18l-0.48,1.69l-2.08,-1.13l-0.19,-0.68l1.73,0.6l0.49,-0.64l-2.5,-1.42l0.72,-1.32l2.33,-1.17L116.33,425.38zM121.03,424.14l0.82,0.39l-0.98,0.68l-0.23,-0.99l-1.82,-0.04l1.77,-1.73L121.03,424.14zM126.16,417.36l-0.2,1.52l-0.62,-1.52H126.16zM116.37,415.99l0.77,0.57l-1.31,0.27L116.37,415.99zM118.6,415.54l0.25,0.88l-1.48,0.29L118.6,415.54zM86.58,411.54l0.64,0.7l-1.04,1.05L86.58,411.54zM90.06,404.4l0.17,1.25l-0.97,0.7l2.02,1.52l-1.75,0.49l1.46,2.3l-0.79,0.92l-1.38,-0.9l0.58,-2.67l-0.91,-2.99l0.71,-1.46L90.06,404.4zM60.65,386.54l1.52,0.78l-2.59,0.14L60.65,386.54zM60.46,384.46l0.62,0.53l-1.66,0.76l0.1,-1.15L60.46,384.46zM60.42,381.43l0.22,0.74l-2.24,0.61l-0.52,-0.63l0.75,-0.55l-1.67,-1.25l2.33,-0.53L60.42,381.43zM44.97,364.04l2.45,2.51l-2.77,-0.37l-1.56,1.1L44.97,364.04zM55.34,360.8l1.85,0.69l-1.15,1.83l1.5,0.78l-2.09,2.26l-1.87,-0.43l0.44,-0.82l-3.2,0.24l-2.92,-2.04l1.35,-1.77l0.52,1.73l1.19,0.43l1.14,-2.12l1.8,0.9l0.03,-1.65L55.34,360.8zM216.35,354.36l2.29,2.02l2.34,-1.41l4.19,0.37l1.59,-1.53l0.71,1.1l6.93,-2.1l2.39,-2l-0.27,-1.71l1.07,-1.85l5.96,-0.94l1.2,-1.69l4.78,0.02l1.55,1.08l5.84,-0.51l3.1,2.62l-2.02,0.55l3.67,5.23l7.35,3.81l-0.49,2.42l-1.68,0.25l0,0l-1.6,0.79l0,0l-1.52,1.84l2.54,-0.2l0.99,1.9l-0.21,2.84l3.18,0.63l1.66,2.29l-0.03,1.82l3.71,-0.06l2.67,2.29l-0.26,0.84l-1.25,-0.78l-1.14,1.04l2.57,4.41l-0.84,1.49l1.78,1.37l-1.47,1.06l-0.35,1.78l2.09,2.76l-0.78,1.39l1.17,1.54l-1.76,1.58l5.62,5.16l-0.62,1.54l-2.29,1.21l0.72,3.67l1.99,0.16l1.67,3.24l-2.01,5.64l1.65,1.97l-0.14,1.4l2.06,0.97l1.57,-0.6l1.31,2.48l-0.68,5.28l1.92,3.78l2.68,0.41l1.2,1.58l1.34,-0.51l9.13,1.52l0,0l2.96,1.85l0.25,2.02l2.31,0.35l3.83,3.15l0.57,4.02l-2.47,4l-5.44,-0.23l-2.64,1.3l-2.63,4.41l0,0l-5.4,1.57l-3.69,4.7l-1.03,3.76l-5.56,8.78l-5.39,2.34l-1.56,7.3l-2.58,2.05l-1.88,4.72l0,0l-2.86,-0.37l-2.5,2.96l-0.92,-1.47l-3.6,-1.24l-1.68,-1.86l-1.87,2.96l-2.18,1.39l-3.83,-3.09l-2.3,0.99l-0.84,-4.85l-2,-1.12l-0.41,-1.95l-2.53,0.17l-0.83,-3.75l-7.72,1.3l-1.33,-1.2l-3.7,0.37l-3.63,2.59l-2.43,0.17l-2.68,4.51l-4.14,2.65l-0.85,3l-4.95,-1.18l-0.82,-1.66l-1.83,0.71l0.44,1.02l-1.07,1.72l-0.75,-1.72l-2.45,0.44l-1.59,-4.77l-0.27,-1.7l1.66,-1.37l-1.82,-3.97l0.65,-5.01l-3.22,-0.72l-2.4,-3.04l-8.06,-3.91l-2.23,-5.24l0.58,-1.59l2.1,-0.6l0,0l0.22,-1.65l1.75,0.97l-1.03,-2.21l-1.11,0.99l0.16,-1.26l-0.78,0.56l-3.3,-1.05l-0.64,-1.11l-3.37,1.49l-1.11,-1.18l0.85,-0.89l2.12,0.85l4.4,-1.22l3.78,0.31l2.63,-1.51l0.21,1.86l-2.76,1.07l4.46,0.93l-0.54,0.58l2.57,2.58l1.63,-0.89l-1.49,-0.19l-0.42,-3.59l-1.63,-1.47l0.71,-0.93l-0.91,-0.08l0.58,-1.81l0.99,0.37l-0.48,-1.57l1.74,-0.83l-2.88,0.99l2.78,-1.59l0.62,-1.57l1.73,-0.21l1.41,-2.02l-1.32,-0.37l-1.98,1.77l-2.47,0.58l-5.12,-0.17l2.52,1.42l-5.39,-2.14h4.86l-2.12,-0.82l1.74,-1.15l-2.93,0.58l0.72,-0.41l-0.57,-0.39l6.74,-2.59l-7.28,1.01l4.81,-1.26l0.35,-0.99l-3.23,-0.31l1.61,-1.79l4.49,-0.49l-1.12,-0.7l1.39,-1.97l-4.15,0.45l-0.69,0.95l0.76,0.53l-2.73,0.1l-0.07,-1.63l-2.75,0.72l-0.16,-0.72l-2.88,0.43l-0.02,-0.74l-1.33,1.71l-5.84,1.5l-0.88,1.3l0.19,-2.08l-2.24,0.58l0.68,0.93l0.91,-0.37l-0.33,0.58l-5.19,0.86l-6.36,0.12l-0.84,-0.76l-12.63,2.08l-3.45,-0.66l-4.55,1.67l-5.86,-0.1l-1.73,1.56l-2.51,-0.64l-0.45,0.89l-3.6,0.62l-3.65,-3.25l0.29,-1.15l1.08,0.23l-0.83,-0.74l0.22,-2.92l-1.13,2.08l-1.14,-2.39l3.37,-2.9l-1.64,-2.47l-1.52,0.99l1.66,0.93l-2.68,0.41l-1.08,1.52l1.1,1.97l-1.81,5.15l-0.51,-1.32l-2.34,1.73l-1.4,-1.19l-0.61,-2.37l1.14,-2.78l2.75,-2.86l-0.73,-1.67l0.9,-0.31l-0.4,-1.03l-1.19,0.27l-0.08,-3.47l-1.69,-1.27l0.42,-1.5l3.67,-0.58l1.68,2.32l-0.84,-2.24l1.7,-1.05l-0.71,-1.25l0.58,-1.03l0.25,4.37l1.59,1.99l0.36,-1.58l-0.69,0.54l-0.89,-1.75l1.87,-3.57l-2.85,-1.27l-0.69,0.94l-0.01,-1.87l-0.68,0.9l-1.56,-2.22l0.49,-1.79l2.33,-0.92l2.17,-0.45l0.97,0.98l-1.01,-1.64l-2.31,0.1l0.81,-2.01l2.22,0.29l-1.49,-0.9l2.23,-1.37l-3.78,1.52l-0.02,1.5l-1.12,0.18l1,0.27l-0.04,1.29l-1.4,-0.45l-1.48,0.88l-0.44,-1.27l-0.77,0.78l1.48,2.38l-0.82,3.59l-1.01,-0.16l1.83,0.8l0.33,1.74l-5.4,1.03l-2.66,-1.75l1.54,-0.7l1.19,0.66l2.2,-1.36l-2.46,-0.16l-0.25,-1.03l2.27,-1.75l-1.21,-2.13l1.68,-0.12l-0.55,-1.37l-2.27,1.78l1.7,-3.08l-2.66,0.25l1.03,-1.29l-1.84,-0.29l-0.51,0.68l1.22,-0.12l0.01,1.72l-1.05,2.42l-1.42,0.7l-2.01,-1.15l-0.16,0.68l1.87,0.6l-1.84,1.52l-2.02,-0.1l1.7,1.17l-2.65,4.81l-1.76,1.11l0.3,2.69l-4.81,1.29l-0.05,1.89l-0.49,-2.04l-0.84,0.54l-0.65,-1.29l-2.43,-0.54l-0.43,-2.65l-0.16,2.49l-1.03,-0.8l-0.88,1.42l-0.8,-0.92l-1.23,0.9l0.88,0.37l0.28,3.23l-1.12,-0.6l-0.04,-1.71l-2.74,-0.88l2.3,-1.85l2.33,0.49l-0.41,-2.42l-1.77,0.82l-0.16,-1.23l-1.57,-0.93l0.46,3.04l-0.77,0.49l-0.47,-0.78l-0.48,0.92l-0.62,-2.03l-1.27,0.74l-1.08,-1.03l0.82,-3h1.54l-0.22,-1.93l1.21,-0.82l-0.35,-0.9l-1.82,0.84l0.98,-1.31l-0.69,-1l6.11,-1.81l0.63,-1.05l1.74,1.46l1.44,-2.67l2.59,-1.19l-1,-0.68l-0.7,0.6l-0.02,-0.96l1.84,-1.76l-3.27,1.01L99,405.49l0.42,-0.98l2.33,-0.2l-0.17,-0.82l-2.95,0.02l-2.36,2.07l-0.63,2.42l-0.07,-1.56l-0.94,-0.25l-0.88,2.91l-1.73,-1.13l-0.5,-3.73l1.82,-1.03l1.4,0.68l-0.48,-0.9l1.45,0.12l-0.61,-0.88l0.66,-0.63l1.21,1.17l1.29,-0.92l-3.74,-1.45l-0.41,2.07l-2.94,1.27l-0.93,-1.17l0.73,-0.76l-1.11,0.2l-1.87,1.87l-0.31,5.27l-2.76,1.85l-1.35,-0.68l-1.06,1.23l1.29,0.92l-0.79,0.43l-2.03,-0.94l1.35,-1.17l-0.63,-0.9l-4.88,0.76l-2.4,-0.92l-0.78,-4.59l-2.89,-1.21l-1.81,-2.19l-0.9,3.5v-1.29l-1.53,-0.04l-0.71,1.04l-0.75,-0.9l-1,2.56l-3.46,-3.9l-3.49,2.6l-0.46,-1.19l3.57,-5.68l0.69,-0.02l-0.27,2.27l0.93,0.78l-0.44,-2.34l1.18,-3.34l4.28,1.31l1.2,2.5l0.7,-0.31l-1,-1.52l1.95,1.56l1.9,-3.91l2.53,-0.45l-3.52,-0.63l-1.03,-0.63l1.08,-0.06l-0.52,-0.55l-2.57,0.41l1.23,-1.19l-2.23,-1.31l1.35,-1.23l0.94,-0.33l7.21,4.38l-0.57,-1.78l-1.21,0.43l-1.4,-1.19l2.47,-1.62L71.93,390l-4.41,-2.09l-1.98,0.16l-2.19,-1.33l0.1,-0.63l1.68,0.68l-0.58,-0.86l-2.39,-0.47l-0.31,-1.04l3.86,0.59l-3.59,-1.76l3.24,0.25l4.06,1.92l-1.15,0.53l2.55,0.67l2.23,-0.49l-0.16,-1l-1.06,0.45l-9.45,-2.68L61,379.04l-3.74,0.61l-2.48,-0.9l1.15,-1.08l-0.23,-1.1l3.1,-1.31l1.29,1.72l0.33,-2.51l1.95,1.55l1.18,-0.63l3.97,1.69l-4.48,-3.94l0.09,-0.69l1.2,0.59l1.84,-0.73l0.94,0.86l2.26,-0.35l1.31,1.43l2.01,-0.92l3.69,0.98l0.37,0.94l-1.06,0.71l1.85,2.51l2.75,-0.24l-1.06,-0.71l1.13,-1.21l1.2,1.29l1.78,-0.39l-2.66,-1.59l-2.42,0.73l-0.03,-1.06l0.96,0.55l0.67,-1.12l1.5,0.55l-0.62,-1.18l1.75,-0.71l-7.1,-1.35l-2.51,-3.08l-0.49,-3.2l3.31,0.75l2.75,-0.86l3.59,2l5.53,0.43l1.61,-1.71l1.69,0.16l-1.19,-0.67l0.21,-0.92l2.95,-0.41l2.99,1.28l-3.66,-2.94l0.9,0.39l0.08,-0.86l0,0l10.93,5.83l9.09,-0.43l3.84,-2.47l2.18,2.33l4.56,-0.94l3.67,1.31l2.4,-2.53l1.62,5.77l3.52,0.69l4.01,3.27l7.06,-0.29l6.86,-1.69l1.64,1.78l-0.48,3.72l2.82,0.86l2.58,-3.29l0.07,1.98l1.68,0.49l1.43,5.7l4.9,3.23l-0.05,3.42l6,1.43l2.92,-2.11l2.71,1.04l2.2,-3.01l1.89,0.2l0.84,-4.21l6.72,-4.27l0.97,-2.45l-2.02,-5.72l4.55,-1.08l-1.21,-2.55l2.01,-1.22l0.75,1.14l1.54,-1.77l-0.75,-2.69l1.32,-1.35l0.29,-3.1l-0.73,-0.57l0.88,-1.77l1.61,-0.12l1.45,-1.45l4.98,3.79l0.14,-1.88l6.6,-0.16L216.35,354.36z"/>
		<path id="IE-KE" title="Kildare" class="land" d="M418.5,410.59L419.51,407.43L424.23,404.91L427.5,399.73L432.34,396.88L434.24,398.76L437.96,397.53L438.33,399.62L440.87,401.63L442.05,404.11L449.96,407.17L452.51,403.15L457.5,400.94L464.54,404.36L469.04,407.99L478.1,409.42L480.51,406L487.06,410.28L488.44,409.07L491.63,409.16L491.63,409.16L489.2,414.18L487.68,414.86L486.59,422.38L484.4,421.9L482.79,423.36L483.16,424.08L482,425.01L483.34,426.18L483.19,428.58L481.09,430.5L484.61,433.66L485.77,433.31L482.51,435.5L482.77,436.63L484.56,436.52L489.84,438.69L489.47,439.28L489.47,439.28L485.52,443.15L486.6,444.95L484.05,448.51L481.99,448L479.87,449.38L479.67,451.05L481.83,452.45L477.96,455.63L477.81,458.87L473.63,464.94L471.85,464.44L471.33,466.72L467.71,467.48L467.28,468.57L459.38,472.01L458.74,476.95L456.48,479.93L454.09,480.86L455.26,482.93L452.76,484.73L452.37,487.74L458.73,495.76L458.79,501.13L458.79,501.13L457.53,501.71L457.17,506.09L455.61,505.95L452.67,510.56L448.56,509.31L446.13,511.64L443.45,508.5L442.48,508.79L443.39,511.39L442.06,512.02L439.27,510.14L437.24,506.72L436.21,506.8L435.42,508.44L435.42,508.44L435.68,500.86L430.56,488.81L425.63,491.32L425.82,489.46L421.29,488.32L417.76,484.55L420.19,477.98L422.34,476.85L421.01,475.17L422.33,473.66L421.85,471.74L422.72,470.52L421.42,464.67L419.62,463.47L418.16,459.43L416.25,458.27L417.27,456L416.52,454L416.52,454L418.12,454.22L419.59,455.88L420.5,452.43L418.55,451.36L415.96,452.12L413.55,449.65L408.73,448.78L410.81,447.54L416.59,448.47L423.93,447.73L423.74,444.54L426.74,442.45L424.37,440.74L422.72,441.22L419.8,439.98L419.78,439.26L422.34,439.06L422.23,437.43L425.95,435.5L424.39,430.64L429.17,429.28L426.84,427.19L430.84,424.92L429.41,422.48L425.32,420.65L425.46,418.54L423.13,415.5L421.18,416.13L418.02,413.51z"/>
		<path id="IE-KK" title="Kilkenny" class="land" d="M349.46,526.77L352.18,525.18L356.37,525.08L356.48,521.67L360.62,517.92L362.97,521.5L365.67,522.5L365.72,521.27L366.64,521.17L367.98,523.41L369.89,522.96L372.43,525.99L375.68,525.39L378.07,522.5L381.4,523.95L382.59,519.61L384.5,517.42L385.98,517.86L386.17,520.65L387.4,520.48L387.71,517.32L390.19,511.45L392.05,510.37L397.87,513.91L399.77,510.87L399.53,508.23L402.64,508.44L405.78,505.29L408.74,507.4L409.55,509.5L410.83,508.71L411.78,509.88L411.67,513.89L414.13,518.25L416.98,518.52L417.67,519.98L419.49,520.63L421.03,524.95L421.03,524.95L417.82,528.01L418.21,531.56L416.27,533.56L417.66,535.95L415.71,537.54L418.73,537.56L420.23,540.65L422.18,541.63L423.7,539.87L427.56,543.55L428.73,547.32L430.78,548.54L429.72,550.64L430.2,553.42L429.36,555.43L430.62,556.91L430.01,557.94L431.62,560.8L434.04,561.56L437.68,565.89L437.96,569.19L432.95,573.78L435.72,575.69L435.13,580.89L437.67,585.5L435.77,587.04L437.87,587.71L437.87,587.71L436.65,591.59L437.87,594.43L436.58,595.9L434.17,594.87L432.73,595.56L434.96,597.35L435.06,599.17L432.33,603.72L432.21,605.86L429.8,605.93L429.01,607.33L429.67,614.75L426.36,619.74L428.48,623.62L428.48,623.62L425.83,624.42L423.56,627.14L417.74,628.05L416.46,625.56L413.07,624.95L409.7,622.95L404.46,628.96L402.67,629.7L400.18,626.15L397.25,625.03L394.84,619.38L393.26,618.25L392.78,615.8L390.59,613.17L384.9,610.77L384.9,610.77L381.9,606.58L383.41,595.46L380.26,593.38L378.66,590.16L373.75,586.01L378.96,578.87L377.67,577.47L375.6,578.75L375.78,577.3L374.77,576.57L375.17,565.47L372.23,562.48L372.62,558.19L367.4,551.17L365.46,546.43L366.06,545.09L363.95,542.02L357.22,538.6L354.93,536.04L354.93,536.04L352.52,536.2L352.52,536.2L352.22,534.03L350.11,531.85z"/>
		<path id="IE-KY" title="Kerry" class="land" d="M49.62,725.83l0.77,0.38l-1.16,1.54l-1.97,-0.09l0.51,-1.32L49.62,725.83zM102.81,707.84l-2.54,2.32l0.18,-1.39L102.81,707.84zM31.27,706.17l-1.75,1.54l1.28,-2.09L31.27,706.17zM37.76,688.94l1.68,0.85l1.21,-1.23l0.47,1.75l3.36,-0.47l-0.2,2.11l-7.5,4.71l-3.04,0.75l-1.32,-1.02l-4.21,2.32l2.23,-6.01l3.79,-0.53l3.03,-2.13l-0.19,-1.77L37.76,688.94zM43.23,687.69l1.33,0.32l-1.75,0.87l-1.52,-0.85l0.42,-0.92L43.23,687.69zM7.07,666.81l1.49,1.14l-2.47,-1.06L7.07,666.81zM18.03,655l1.17,1.21l-0.97,1.65l-7.22,4.39l1.36,-2.56l4.44,-2.77L18.03,655zM11.6,650.73l-0.64,1.69l-1.61,-0.19l2.1,-2.31L11.6,650.73zM152.21,566.56l0.91,1.15l0,0l0.4,1.22l1.84,-0.1l-1.21,1.46l0.69,1.09l-0.72,1.49l2.2,2.77l2.86,0.98l0.98,5.05l-2.17,0.44l-0.62,4.03l-2.31,0.11l1.68,5.6l2.59,1.89l-2.53,1.89l-1.47,3l4.02,4.02l-1.12,2.02l-3.11,1.33l-0.49,1.77l3.16,1.96l2.43,3.22l6.7,2.36l2.51,4.24l0,0l0.83,1.5l-0.56,1.64l-3.77,0.46l0.17,2.42l-3.02,1.94l-0.3,4.88l2.66,3.7l0.79,5.05l1.6,1.42l-0.7,5.41l1.41,3.73l-0.38,1.25l2.03,2.79l0.13,2.24l3.29,2.03l-0.99,1.8l-1.94,0.66l-1.49,3.9l1.37,5.07l3.23,-0.68l2.06,4.25l3.94,-0.3l0.96,1.98l-1.92,2.42l-2.25,-0.72l-4.33,0.62l-2.17,1.46l-5.04,1.13l-0.87,1.96l-4.9,2.57l0.27,4.04l1.88,1.98l-0.7,1.92l2.04,1.62l-3.18,3.17l0.02,1.36l-2.76,2.75l-0.55,2l-2.25,0.55l-1.33,1.49l-2.99,-0.24l-2.19,2l-3.62,0.11l-1.2,4.57l-1.82,1.19l-7.19,1.39l-2.15,-0.79l-1.6,0.71l-1.2,-0.58l-1.52,1.09l-4.88,-0.34l-4.2,4.31l-1.27,2.9l-6.6,1.63l-4.29,3.66l0.05,1.41l-3.55,3.51l-3.64,0.88l-1.38,-1.07l1.07,-4.28l-2.3,-1.09l1.17,-1.69l-2.53,-3.38l0,0l1.26,-1.22l-1.17,-1.41l1.21,-2.24l1.24,1.18l-1.31,1.11l3.97,-0.85l-1.14,1.43l2.46,-0.98l0.96,0.13l-1.35,1.26l2.78,-0.71l-0.93,-1.32l0.77,-0.26l-4.46,-1.35l-0.6,-1.09l5.68,-2.54l-0.22,-2.11l3.81,-2.05l1.48,-2.64l10.35,-2.01l2.32,-2.54l7.19,-2.98l1.77,-2.39l-4.58,2.54l-5.1,1.21l-2.65,-0.89l-10.34,4.43l-0.44,-0.79l-0.85,1.47l-9.16,3.95l-1.66,2.18l2.02,-1.92l-0.48,1.53l-2.57,1.49l-0.78,-0.3l0.22,-1.39l-2.19,0.45l-0.51,-0.73l-1.65,0.94l0.15,-2.03l-1.26,-2.09l0.37,4.78l-0.75,0.81l-4.79,0.55l-7.49,5.61l-2.74,-0.83l-0.89,1.05l-0.73,-0.49l-1.92,1.28l1.39,-0.23l-0.13,1.17l-5.05,0.77l-0.22,1.43l-2.39,0.64l-0.94,1.33l-1.21,-0.7l3.16,-4.13l-1.08,1.37l-2.52,-0.36l-0.75,-1.33l-1.49,0.83l-4.2,-2.8l-1.74,0.45l-1.01,-0.81l-0.04,-0.77l2.59,0.19l2.33,-1.18l1.08,-3.31l-0.73,-0.7l0.5,-3.54l-3.63,-3.65l-4.86,0.73l-2.95,3.94l-0.16,2.18l1.34,0.64l-2.94,0.83l-0.13,-1.05l-2.19,2.58l-4.07,2.18l-1.36,-2.76l2.31,-1.26l-0.64,-1.62l0.96,-1.68l-0.71,-0.51l0.36,-3.9l-7.24,0.45l1.61,-3.05l-0.85,-0.64l0.36,-1.77l-1.18,-0.92l0.85,-1.58l4.75,0.08l4.61,-2.34l1.82,0.4l2.52,-3.38l2.75,2.66l0.07,-2.21l-1.02,-0.57l0.63,-1.04l-3.09,-1.89l7.68,-5l1.15,0.79l2.39,-2.38l-3.52,0.81l-1.92,1.91l-3.15,0.77l-0.68,-0.96l-1.22,2.28l-1.18,-1.32l0.41,-0.98l-4.69,-0.25l0.34,-1.04l4.2,-2.17l1.88,0.94l0.78,-5.04l3.7,-0.93l1.46,1.49l1.02,-2.74l5.69,-2.55l2.31,-2.27l2.24,0.51l1.34,-0.78l0.77,0.81l3.94,-2.7l4.58,0.3l5.88,-3.16l0.2,-5.04l0.93,-1.61l1.14,-0.06l-1.34,1.25l0.67,2.33l-0.76,0.13l-0.61,2.92l4.63,-4.58l0.35,2.18l1.97,0.28l-2.36,-3.67l3.65,-5.02l0.47,-5.1l0.2,1.61l0.82,-0.38l-0.44,4.4l4.7,-1.42l0.8,0.87l-0.15,-1.57l1.41,-1.18l1.73,0.29l0.72,1.21l0.31,-2.48l3.28,0.66l-1.54,-1.61l0.64,-3.3l-0.9,-1.92l-1.49,2.09l-1.04,-1.5l-17.44,3.53l2.45,1.78l0.8,3.17l1.35,1l-0.7,1.14l-2.11,-1.23l-3.56,-5.95l-7.27,1.2l-5.16,2.75l-1.41,-0.59l-1.92,2.1l-1.89,0.53l-0.99,-0.13l0.82,-1.06l-2.04,-0.68l-4.18,2.82l-1.83,-2.84l-1.49,0.99l-3.14,-0.08l-2.68,-4.11l-1.68,-0.47l-0.1,0.89l-1.47,-0.11l-1.46,1.65l5.35,0.91l0.06,1.71l-3.07,0.64l-3.72,-0.72l-0.36,-1.36l-3.98,-1.82l-2.03,2.45l3.55,2.01l-4.5,0.15l-7.58,1.99l-0.77,-2.03l-2.26,-0.23l2.21,-2.42l-1.26,-1.88l0.57,-2.43l-1.46,-1l1.8,-0.8l0.02,-1.69l2.55,-2.03l-2.08,0.11l0.35,-1.14l-2.06,-0.3l7.49,-5.26l0.56,0.83l-1.33,3.89l3.32,0.42l1.8,1.9l0.68,-2.81l-1.44,-0.87l-0.07,-1.29l2.62,-2.91l-2.11,-1.2l1.05,-2.68l4.44,-0.57l3.09,-1.81l0.83,-2.32l2.82,-0.25l1.97,-2.7l2.82,-0.82l2.02,1.01l0.49,-2.02l3.56,-1.48l2.33,0.46l-0.76,4.6l1.56,0.48l-3.73,5.89l2.5,-1.44l2.41,0.61l0.65,-1.71l5.72,-0.97l5.81,-6.37l0.01,-2.49l-2.59,-2.61l2.6,-0.36l1.08,1.37l1.11,-2.19l1.08,1.24l-1.1,1.33l-0.77,6.58l2.47,3.14l5.23,3.55l3.67,-0.4l3.22,0.93l3.85,-1.24l2.99,-4.07l2.18,-0.59l0.88,0.25l-3.31,1.73l1.54,1.29l2.55,-0.1l2.64,-1.67l2.51,1.22l-0.18,-0.93l0.85,-0.19l0.61,0.87l-0.3,-1.37l1.52,-0.72l-4.25,-2.98l-4.32,0.59l-4.29,-1.65L92.76,624l0.09,-1.84l-1.71,-2.36l0.51,-0.97l0.92,-0.27l1.54,1.5l-1.31,1.67l0.3,1.27l1.53,-1.92l2.5,-0.46l1.04,-1.69l-4.16,0.61l-0.54,-0.84l1.75,-1.22l1.42,0.23l0.37,-1.14l1.41,0.5l0.35,-1.85l-1.19,-0.82l-1.52,3.06l-0.35,-0.55l1.76,-4.99l0.18,-8.48l-1,-1.3l-8.43,-1.11l-2.82,-1.47l-1.08,-1.47l0.51,-2.02l4.02,-2.17l5.44,1.22l4.18,-1.39l3.52,-2.33l3.04,-0.53l4.63,-5.06l4.71,-1.59l1.55,-5.75l-0.79,-2.01l1.07,-0.59l-0.89,-0.61l1.13,-0.27l0.37,-1.4l-1.19,-1.7l5.48,-5.04l1.75,-0.75l7.63,1.25l1.13,1.75l1.25,-1.75l2,-0.13l2.88,2.38l2.75,-0.25l1.63,-2.88h6.51l1,-1.63l2.76,0.85L152.21,566.56z"/>
		<path id="IE-LD" title="Longford" class="land" d="M321.11,321.37L321.59,324.31L324.9,323.58L324.72,325.08L326.56,325.97L325.78,326.83L326.8,327.58L327.66,322.73L328.53,322.77L330.38,326.36L332.31,324.63L336.04,325.3L338.14,319.22L337.56,315.59L339.7,315.51L340.79,312.93L341.99,313.68L342.87,313.03L345.13,308.9L347.48,307.73L347.46,305.28L349.96,304.83L352.42,300.68L355.68,301.96L356.75,301.53L356.75,301.53L360.2,306.29L360.79,308.62L361.08,307.65L362.9,308.03L363.71,310.26L363.06,313.18L361.4,312.75L360.04,318.49L364.65,317.9L366.76,316.05L372.42,317.98L373.76,324.84L372.63,326.09L374.24,328.16L379.87,330.6L380.5,333.3L380.5,333.3L383.36,334.06L384.19,335.68L383.2,341.39L381.12,341.54L379.74,343.51L377.79,341.56L374.62,342.57L374.21,345.26L372.89,345.38L370.42,348.39L367.97,346.85L368.5,348.6L366.53,348.55L365.81,351.12L366.39,353.09L364.66,353.22L363.8,354.34L361.72,354.01L361,356.48L361.94,358.84L358.46,356.78L356.71,356.86L356.28,358.35L361.08,360.47L362.54,365.3L359.63,364.9L357.57,365.81L357.8,368.63L354.7,369.79L353.96,372.43L350.86,375.94L350.71,380.86L349.2,381.68L345.63,380.13L343.92,382.21L341.58,382.07L339.98,380.7L334.9,380.08L332.44,378.74L330.58,379.51L327.88,377.69L321.11,378.78L318.03,382.23L315.04,383.01L315.04,383.01L313.66,377.57L307.24,366.24L307.28,359.51L308.93,356.31L313.18,352.08L313.08,348.11L315.7,345.87L317.21,345.83L317.82,340.56L321,341.29L321.19,338.93L324.67,336.58L325.69,332.49L322.21,329.87z"/>
		<path id="IE-LH" title="Louth" class="land" d="M474.9,280.03L476.15,277.91L479.95,278.78L482.98,277.43L485.28,278.4L486.76,276.46L489.32,275.86L488.45,274.81L489.01,273.54L491.45,274.58L493.24,277.43L496.64,276.46L499.6,277.04L500.34,275.51L502.42,274.69L502.39,266.48L505.13,266.4L505.69,270.11L507.15,270.69L509.94,267.17L511.22,267.03L513.5,269.02L513.5,269.02L516.24,273.62L521.73,277.29L523.56,280.84L527.32,283.42L529.53,282.11L529.96,285.36L532.8,288.75L528.49,292.88L525.52,293.38L515.77,291.32L507.38,286.19L503.75,286.63L502.4,282.82L501.51,283.18L502.87,286.29L499.58,286.33L499.56,287.24L504.27,287.5L505.21,289.52L502.54,292.21L502.45,296.27L500.55,298.7L501.41,299.99L501.03,304.49L502.02,308.54L506.35,313.22L509.26,313.07L517.02,316.46L515.4,318.91L514.56,326.76L516.23,328.49L519.47,329.32L517.22,331.23L516.11,335.52L515.01,341.84L516.06,343.83L516.06,343.83L513.12,342.15L507.38,344.5L507.06,346.68L504.68,347.09L496.24,343.24L493.89,344.4L494.12,345.16L490.74,345.5L488.31,342.17L492.14,337.23L491.64,335.48L489.98,334.46L484.5,335.01L481.81,332.75L480.69,332.84L480.51,329.18L477.29,327.92L477.1,324.07L474.94,321.06L475.66,319.46L474.43,316.6L471.63,313.07L467.96,312.24L463.71,308.31L463.71,308.31L465.03,306.31L466.4,306.92L469.25,305.58L470.85,303.15L467.97,300.88L469.26,299.49L467.48,297.79L469.11,298.46L467.94,296.09L470.24,296.25L469.88,294.25L471.53,293.99L472.65,292.45L476.34,294.8L478.69,294.43L47