﻿<?xml version="1.0" encoding="utf-8"?>
<!-- (c) ammap.com | SVG map of South Korea - High -->
<svg xmlns="http://www.w3.org/2000/svg" xmlns:amcharts="http://amcharts.com/ammap" xmlns:xlink="http://www.w3.org/1999/xlink" version="1.1">
	<defs>
		<style type="text/css">
			.land
			{
				fill: #CCCCCC;
				fill-opacity: 1;
				stroke:white;
				stroke-opacity: 1;
				stroke-width:0.5;
			}
		</style>

		<amcharts:ammap projection="mercator" leftLongitude="125.384480" topLatitude="38.612150" rightLongitude="130.921968" bottomLatitude="33.194037"></amcharts:ammap>

		<!-- All areas are listed in the line below. You can use this list in your script. -->
		<!--{id:"KR-11"},{id:"KR-26"},{id:"KR-27"},{id:"KR-28"},{id:"KR-29"},{id:"KR-30"},{id:"KR-31"},{id:"KR-41"},{id:"KR-42"},{id:"KR-43"},{id:"KR-44"},{id:"KR-45"},{id:"KR-46"},{id:"KR-47"},{id:"KR-48"},{id:"KR-49"}-->

	</defs>
	<g>
		<path id="KR-11" title="Seoul" class="land" d="M132.87,208.35L133.45,208.68L133.45,208.68L137.25,212.51L137.15,214.29L137.7,214.81L138.02,217.91L138.59,218.44L139.14,218.34L141.56,217.09L144.13,222.79L144.66,222.92L146.47,222.19L147.68,222.69L150.07,222.59L154.24,220.28L157.31,219.99L157.31,221.7L158,222.92L161.65,220.84L164.64,220.58L166.32,219L165.87,218.44L166.3,217.85L166.93,218.01L167.56,217.55L168.84,215.83L168.84,215.24L167.66,214.75L168.06,212.24L169.05,211.25L170.81,210.63L171.26,210.1L170.6,207.69L169.81,206.54L168.66,207.36L166.19,207.96L165.01,208.71L163.83,208.88L163.46,208.29L163.43,207.1L164.88,202.94L163.77,201.23L163.7,199.38L162.8,198.22L162.7,193.7L161.78,192.61L160.6,192.41L157.97,192.74L155.63,192.21L154.72,193.2L153.46,193.73L152.9,194.26L152.93,195.45L151.83,196.5L151.75,199.51L150.65,200.3L145.5,200.7L144.66,201.75L144.5,204.85L143.87,205.22L140.25,206.83L137.83,205.68L136.44,203.96L135.18,203.63L134.16,206.11L133,207.1z"/>
		<path id="KR-26" title="Busan" class="land" d="M361.82,463.22l0.04,0.76h3.97l1.34,1.34l0,0l1,1.67l-0.17,1.51l-0.9,0.32l-0.6,0.77l-0.37,1.02l0.26,1.67l-0.73,2.34l-0.87,-0.06l-0.11,0.93l-0.89,0.13l0.58,0.54l1.03,-0.35l0.31,1.63l-1.42,3.04l-0.63,-0.03l-0.34,-0.48l-0.6,1.41l0.79,1.38l-0.08,0.48h-0.45l-0.03,1.25l-0.5,0.26l-0.31,-0.45l-0.53,0.74l-1,0.13l-0.58,2.21l-0.76,0.16l-0.37,0.54l-1.65,-0.61l-0.6,0.1l-0.68,0.83l-1.65,-1.09l0.11,0.8l-1.63,0.22l-0.24,0.54l0.29,0.86l-0.66,0.67l1.02,0.16l0.52,1.5l-0.13,2.62l-1.18,-0.64h-0.71l-0.29,0.51l-0.92,-0.19l-0.11,-1.02l-0.21,0.64l-1.94,-0.26l0.21,-1.98l-0.71,-0.45l-0.58,0.8l-1.21,0.51l-0.31,0.58l0.24,0.38l-1.63,1.73l-0.21,1.79l-0.81,0.1l0.68,1.44l-0.71,1.15l-0.92,-2.04l-0.18,-1.53l-1.08,0.19l0.92,3.86l-0.34,0.54l-0.6,-0.13l-0.16,-1.47l-0.97,-0.35l-0.29,0.67l0.63,0.16l-0.13,0.83l-1.16,-0.13l0.68,0.93h-0.45l-0.73,0.83l0.1,-1.76l-0.73,-0.38l-0.82,-3.32l0.55,-3.04l-0.58,-0.06l-0.34,1.73l-1.16,0.77l-0.13,-1.18l0.47,-1.6l-0.42,-0.1l-0.68,2.01l-1.26,0.74l-0.03,0.86h-1.65l0.5,-3.8l0.53,-0.74l-1.05,-0.38l-0.97,4.92l-1.5,-0.51h-2.94l-1.5,-1.63l-0.24,0.7l-1.55,0.16l-1.16,1.31l-0.52,-0.06l-0.24,-0.83l0.76,-1.05l0.87,0.16l0.21,-0.64l-1.26,0.19l0.32,-2.32l0,0l0.2,-0.47l2.43,-1l4.29,-1.15l0.43,-5.01l2.29,-0.29l3.87,-2.43l4.15,-0.14l1.43,-1.58l0.86,-2l0.79,-0.2l0.98,-1.17l3.95,-2.48l1.84,0.32l1.03,-1.34l0.86,-2.72l1.72,-2.58l4.87,-0.57l0.57,-1.86l2.95,-2.71l0,0L361.82,463.22zM347.32,494.1l1.86,1.6l-0.29,1.63l1.94,1.63l-0.5,1.08h-0.89l-0.47,-1.18l-0.63,0.26l-0.5,-0.48l-0.08,-0.8l-1.31,-0.42l-1.81,-1.88l0.03,-0.48l0.81,-0.51L347.32,494.1z"/>
		<path id="KR-27" title="Daegu" class="land" d="M297.68,431.85L296.9,432.85L296.09,436.44L295.02,437.04L292.6,436.15L292.6,436.15L291.07,436.52L291.07,436.52L287.58,439.02L285.17,439.08L285.17,439.08L284.43,435.65L280.38,430.66L280.69,427.85L282.56,428.47L284.12,429.72L286.31,429.72L286.93,427.22L283.81,423.79L285.06,420.67L286.31,417.86L291.61,416.93L291.3,415.05L288.49,412.87L283.81,412.56L284.12,409.44L285.37,406.63L287.55,403.51L289.74,402.88L291.61,401.64L292.23,407.25L294.73,407.25L295.67,404.13L298.16,399.14L304.09,397.89L306.9,394.77L310.33,393.84L313.45,394.15L317.2,397.27L317.2,401.64L317.82,404.76L319.7,408.81L318.76,411L315.33,412.25L313.77,415.68L313.77,418.8L311.27,419.11L311.27,420.98L312.52,422.54L312.52,426.6L309.09,427.85L307.53,429.72L304.72,429.41L304.09,426.6L300.97,426.6L298.79,427.85L297.23,430.34z"/>
		<path id="KR-28" title="Incheon" class="land" d="M113.39,205.14l2.45,-1.99l1.69,-0.73l0.61,-1.58l1.5,-1.27l2.08,0.19l7.46,6.03l0,0l3.82,1.29l-0.13,1.25l0.58,0.33l0,0l-3.54,4.55l0,0l0.13,4.02l3.31,2.9l0,0l0.03,1.18l-0.71,0.79l-0.02,0.66l0,0l0.26,1.15l-0.94,0.82l0,0l-0.55,0.43l-0.29,1.08l0,0l-0.55,-0.16l-0.13,-0.2l-1.31,-0.23l0.47,-1.81l-0.68,-0.53l-0.26,0.07l0.6,0.49l-0.13,0.76l-0.6,0.36l-0.29,-2.21l-0.32,-0.13l0.05,2.27l0.42,0.23l-0.03,0.49l-1.97,2.27l-3.57,-0.49l-3.68,4.64l-3.2,0.03h-0.13l-1.26,0.1l-0.34,1.09l-1,-0.03l0.84,-0.26l0.52,-1.84h2.18l-0.45,0.82h2.84l3.6,-4.51l-1.34,-0.43l-2.7,-2.73l-0.95,-4.28l-0.5,2.31l-1.47,-0.1l0.37,-0.82l-0.5,-0.72l0.68,-0.1l-0.47,-0.4l0.11,-0.56l-0.81,1.28l-0.97,-0.1l-0.24,-0.4l0.37,-1.38l-0.21,-0.89l0.6,-0.03l-0.34,-0.82l0.79,-1.52l2.99,-1.19l1.23,0.4l-0.76,-0.54l-0.16,-1.14l-1.05,0.99l-1.37,0.13l0.05,-1.32l-0.74,-0.4l-0.29,-0.69l0.97,0.1l-0.16,-1.25h-0.58l-0.05,-0.83h-0.53l-0.08,-0.43l0.68,-0.3l0.05,-1.42l-2.63,1.02l-0.16,0.63l-0.39,-0.4l-0.6,0.23l-2.31,2.02l2.21,-2.08l3.91,-1.62l-0.84,-1.06l-0.74,-0.13L113.39,205.14zM87.39,206.76l1.76,0.89l0.08,0.36l0.87,-0.26l0.52,1.55l0.89,0.46l2.97,-0.43l-0.26,1.45l-2.05,-0.43l-1.86,0.63l-0.05,-0.56h-0.34l-1.02,0.96l0.37,-2.11l-1.94,-1.91L87.39,206.76zM107.03,209.92l0.76,0.73l-0.03,0.46l3.57,0.99l0.55,0.92l0.84,0.4l0.42,1.85l-2.26,1.42l-1.39,-0.07l-0.6,-0.59l-1,1.25l-2.13,0.96l-1.73,2.24l-4.02,2.93l-1.55,-0.2l-1.31,0.76l-0.05,-0.53l0.58,-0.33l-0.18,-1.12l-0.95,-0.66l-1.23,0.82l0.89,-0.92l-0.47,-0.72L95,220.73v0.79L94.37,221l-0.24,0.76l-0.52,-0.72l-1.1,-0.1l0.87,-0.63l-0.47,-0.16l0.13,-0.96l-0.55,0.07l-0.66,-0.73l-0.18,-0.69l0.42,-0.69l1.65,-0.03l3.94,-2.8l5.57,-0.26l1.34,-0.96l0.68,-2.7L107.03,209.92zM97.18,224.58l0.1,0.82l0.79,0.26l0.79,1.28l1.1,0.53l-0.08,0.59l-0.63,-0.07l0.58,0.43l-0.71,0.49v0.69l-1.57,0.43l-0.95,-0.92l0.37,-1.25l-0.26,-0.69l-1.18,-0.3l0.81,-1.45l0.08,-0.99L97.18,224.58z"/>
		<path id="KR-29" title="Gwangju" class="land" d="M150.98,480.68L149.04,478.34L147.21,477.47L144.78,477.38L142.34,478.34L140.33,479.38L138.33,481.47L136.85,481.56L134.76,480.86L133.28,479.47L132.67,477.29L130.49,477.21L128.4,482.52L126.05,482.43L124.31,484.52L123.18,489.31L123.61,493.4L130.84,494.45L132.67,496.71L134.59,500.54L138.33,500.54L141.73,498.54L145.56,498.54L147.04,497.5L150.18,498.11L153.57,495.75L154.97,493.93L155.75,492.27L155.84,489.66L156.71,487.83L156.71,486.44L154.62,485.48L152,485.22z"/>
		<path id="KR-30" title="Daejeon" class="land" d="M192.38,341.72L192.69,341.89L192.69,341.89L193.17,341.8L194.15,339.52L194.15,339.52L194.76,338.88L194.76,338.88L196.15,339.06L195.83,340.36L195.83,340.36L195.76,341L195.76,341L195.76,341.26L198.62,338.6L198.62,338.6L201.12,341.1L201.12,341.1L201.36,343.72L202.01,344.47L203.79,344.88L203.47,346.51L204.24,346.72L205.49,348.9L204.24,349.21L202.68,350.77L202.68,350.77L201.74,356.39L201.74,356.39L200.49,362.63L201.66,366.38L201.66,366.38L198.31,368.56L196.13,371.37L192.38,369.18L190.2,365.44L190.2,363.57L189.57,362.01L188.01,362.01L188.33,365.13L187.7,370.12L186.76,372.3L185.52,372.3L184.58,369.18L182.08,368.25L180.52,366.06L180.21,362.63L178.03,360.76L177.72,356.7L179.9,354.21L179.59,345.47L179.59,345.47L182.11,344.89L182.11,344.89L183.02,344.85L186.45,343.28L187.39,340.48L187.72,337.19L187.41,337.15L187.41,337.15L187.39,336.73L191.13,336.42z"/>
		<path id="KR-31" title="Ulsan" class="land" d="M361.02,427.42L362.82,428.89L364.83,429.2L365.8,429.79L366.04,430.61L366.04,430.61L365.62,433.46L365.62,433.46L365.9,434.23L366.63,434.56L366.63,434.56L368.61,435.21L368.61,435.21L370.04,434.97L372.86,433.13L373.98,432.82L373.98,432.82L375.46,432.81L375.46,432.81L380.35,434.55L380.35,434.55L382.11,434.97L382.11,434.97L385.01,435.38L385.71,436.83L385.68,438.21L384.94,438.41L384.55,438.99L385.08,442.13L384.47,443.19L384.42,444.54L384.31,444.9L383.29,445.06L383.32,445.54L384.05,445.15L383.87,446.73L382.66,447.24L382.68,447.53L383.53,447.37L383.66,447.98L382.4,448.59L382.58,449.04L383.53,448.65L383.89,449.3L383.42,449.23L382.87,450.48L381.87,450.07L381.95,450.42L380.95,450.55L381,451.06L380.48,451.54L380.06,451.35L379.82,449.87L380.22,448.88L379.59,448.04L379.06,447.98L379.25,446.6L378.43,445.03L376.49,442.9L374.99,442.42L374.99,443.1L376.38,443.58L377.3,444.77L377.22,445.89L378.19,446.15L378.12,446.98L378.54,447.59L378.22,448.04L377.7,447.82L376.67,448.17L376.17,447.72L376.7,448.43L377.67,448.17L378.56,449.75L377.93,450.2L377.8,451.35L377.14,451.58L375.96,452.99L375.28,452.96L374.78,451.83L373.73,451.29L374.41,452.09L374.49,454.3L374.78,454.56L375.65,454.24L375.15,455.23L376.51,454.5L376.09,455.23L376.51,456.1L376.2,456.49L375.18,456.55L374.94,457.32L375.33,458.47L376.04,458.47L376.07,459.05L375.57,459.21L375.28,460.62L374.46,460.98L374.25,461.97L374.36,462.71L375.33,463L376.04,464.47L374.54,465.34L373.99,464.79L373.36,464.85L372.86,465.98L372.26,465.95L372.16,466.62L371.66,466.84L371.34,467.93L370.26,468L370,469.18L368.85,469.05L368.56,468.25L368.01,468.51L368.18,467L367.18,465.32L367.18,465.32L365.84,463.98L361.86,463.98L361.82,463.22L361.82,463.22L360.28,461.34L360.28,461.34L357.19,461.13L357.19,461.13L354.96,459.24L351.53,455.26L351.53,455.26L348.27,451.9L345.87,451.7L345.87,451.7L343.12,451.7L340.89,450.65L340.55,445.82L342.78,443.93L342.78,443.93L343.98,442.88L343.98,441.42L342.51,438.99L342.51,438.99L346.43,435.9L346.43,435.9L348.09,435.73L348.09,435.73L348.76,435.86L349.42,434.99L348.07,432.51L347.84,431.45L348.44,430.95L352.59,428.38L355.71,427.36L357.33,427.65L359.92,427z"/>
		<path id="KR-41" title="Gyeonggi" class="land" d="M79.19,183.7l-1.73,-1.49l-0.08,-0.6l0.84,-0.5l0.68,-1.16l-0.16,-1.19l0.37,-1.09l1.57,-1.49l0.84,0.3l1.81,-0.3l3.05,1.75h1.55l0.84,-0.66l1.08,1.19l-1.71,2.78l-1.97,1.19l-2.63,-0.33l-0.79,0.53l-1.44,0.07l-1.05,1.42L79.19,183.7zM89.8,241.98l-0.37,0.53l-0.34,-0.26l-0.21,0.43l-1.39,-0.89l-0.45,0.2l-1.52,-0.49l-0.08,-0.59l-0.81,0.16l0.21,0.76l-0.47,0.33l1.26,1.22l0.11,-0.43l0.5,0.49l0.89,-0.13l0.21,0.79l0.18,-0.43l0.42,0.03l0.42,0.56l2.07,-0.53l0.74,-1.21l-0.84,-0.53H89.8zM82.03,198.11l-0.05,-0.99l0.5,-0.89l-0.26,-0.5l-1.52,0.07l-0.68,-0.4l-0.92,0.23l-0.08,0.59l1.39,1.49l1.86,1.02l0.55,0.76l0.34,-0.56l-0.47,-0.5L82.03,198.11zM70.56,243.89l-0.24,-0.56l-0.92,0.62l-0.08,-1.35l-0.39,-0.03l-0.29,-1.48l-0.6,-0.43l-0.5,0.26l0.18,0.46l-1.18,2.5l0.08,2.17l-0.6,0.89l1.26,-0.2l-0.21,-0.46l0.39,-0.33l0.39,1.28l1.16,-0.36l0.13,0.72l-0.66,0.33l0.37,0.39l1.76,-0.33l0.6,0.23l0.13,-0.52l0.89,0.1l0.05,-0.56l1.55,-1.31l-0.29,-0.3L70.56,243.89zM76.7,191.67l-0.37,-0.13l-1.26,1.52l-1.05,-0.36l-1.34,0.4l0.1,0.5l1.18,0.73l1.16,-0.5l0.94,0.69l-0.08,0.79l0.47,-0.2l1.39,0.53l-0.29,-0.76l0.58,-0.69l-1.08,-1.06L76.7,191.67zM159.79,121.8l-5.57,4.27l-1,1.83l-3.9,3.98h-2.81l-4.68,-1.87l-2.5,1.56l-2.81,1.87l-2.81,2.81l-3.43,4.99l1.87,0.94l1.87,3.74l6.31,0.29l3.37,1.89l0.62,3.12l-1.25,0.94l-0.31,1.87l-2.18,-0.62h-2.81l-0.31,3.74l-1.56,0.94l0.31,2.5l1.87,0.94l-0.31,6.55l-2.18,1.25l-1.56,-2.5l-1.56,-1.25l1.25,-4.37l-1.96,-2.47l-2.4,0.07l-0.32,2.71l-1.87,1.87l-3.48,-3.34l-0.74,0.11l-0.28,0.84l1.17,4.06l-0.49,1.87l3.49,0.83l1.25,0.94l3.43,4.99l-6.55,1.87h-2.84l-0.96,4.55l-3,0.18l-1.12,0.53l-1.96,1.94l-3.56,-0.53l-2.02,-1.61l-0.6,1.17l-1.08,0.1l-0.68,0.69l1.1,1.75l-0.87,4.23l1.08,1.79l0.08,1.49l-0.58,1.62l1.16,0.53l-0.05,1.26l-0.71,0.46l1.68,3.04l0.97,3.3l2.37,3.1l0,0l2.45,-1.99l1.69,-0.73l0.61,-1.58l1.5,-1.27l2.08,0.19l7.46,6.03l0,0l3.82,1.29l0,0l1.15,-0.99l1.02,-2.47l1.26,0.33l1.39,1.72l2.41,1.15l3.63,-1.62l0.63,-0.36l0.16,-3.1l0.84,-1.06l5.15,-0.4l1.1,-0.79l0.08,-3l1.1,-1.06l-0.03,-1.19l0.55,-0.53l1.26,-0.53l0.92,-0.99l2.34,0.53l2.63,-0.33l1.18,0.2l0.92,1.09l0.11,4.52l0.89,1.15l0.08,1.85l1.1,1.72l-1.44,4.16l0.03,1.19l0.37,0.59l1.18,-0.16l1.18,-0.76l2.47,-0.59l1.16,-0.82l0.79,1.15l0.66,2.41l-0.44,0.53l-1.76,0.63l-1,0.99l-0.39,2.5l1.18,0.49v0.59l-1.29,1.71l-0.63,0.46l-0.63,-0.16l-0.42,0.59l0.45,0.56l-1.68,1.58l-2.99,0.26l-3.65,2.08l-0.68,-1.22v-1.71l-3.07,0.3l-4.18,2.31l-2.39,0.1l-1.21,-0.49l-1.81,0.72l-0.53,-0.13l-2.57,-5.7l-2.42,1.25l-0.55,0.1l-0.58,-0.53l-0.31,-3.1l-0.55,-0.53l0.1,-1.78l-3.81,-3.82l0,0l-3.54,4.55l0,0l0.13,4.02l3.31,2.9l0,0l0.03,1.18l-0.71,0.79l-0.02,0.66l0,0l0.26,1.15l-0.94,0.82l0,0l-0.55,0.43l-0.29,1.08l0,0h0.81l0.42,0.59l-3.96,-0.76l-0.89,1.05l0.81,0.63l-0.39,1.51l-1.97,1.65l-0.76,-0.07l-0.47,0.69l-1.5,0.36l-0.26,0.95l0.53,0.13l0.03,0.43l-7.48,2.56l-2.94,2.24l-0.92,-0.26l0.47,0.99l-1.29,1.38l-0.58,-0.03l-0.03,-0.66l-2.28,-0.69l2.13,2.2l0.31,1.48l0.45,0.36l-0.34,2.07l-0.47,0.43l-1.1,-0.03l-0.24,0.72l0.11,0.66l1.1,0.07l0.24,0.75h-1.21l0.29,0.85l-0.6,0.16l-0.47,0.92l0.39,0.26l0.55,-0.89l0.71,-0.07l1.02,1.58l0.71,-0.75l-0.21,-0.62l0.63,-1.35l0.71,-0.66l0.87,0.69l0.58,-0.07l0.5,0.85l0.37,-0.49l0.71,0.56l-0.21,-1.25l1,-2.07l0.26,1.64l2,1.25l-0.5,0.69l-0.03,1.02l0.58,0.62l0.37,-0.85l-0.18,-0.72l0.6,-0.75l-0.34,-1.64l-2.63,-1.35l-0.24,-1.44l-0.53,-0.43l0.13,-0.82l-0.94,-0.46l-1.26,0.07l-0.97,-1.35l-1.16,-0.66l1.1,-1.15l-0.08,-0.66l3.2,-2.23l6.49,-2.24l1,-0.07l3.52,2.79l4.86,1.81l3.1,-0.39l1.16,2.1l1.05,0.43l0.55,0.76l1.26,-0.43l-0.87,0.82l-0.13,0.95l-1.58,-2l-0.47,0.36l-1.44,-0.85l0.16,-0.92l-0.89,0.33l-0.34,0.79l0.76,0.56l0.18,0.72l-1.1,-0.56l-0.81,0.46l0.73,1.74l-0.92,0.85l0.66,0.2l-0.71,0.2l0.31,0.49l-1.84,2.66l-0.34,-0.59l-0.97,-0.3l0.58,-0.69l-0.47,-0.66l-0.13,-2.36l-2.65,0.85l-0.34,-1.08l-0.89,0.13l-2.68,-0.89l-0.89,1.12l0.16,0.72l-1.71,0.36l0.39,1.74l0.52,-0.2l0.39,0.79l-0.92,0.79l-0.03,0.95l0.97,1.54l-1.42,0.03l-1.16,1.48l1.18,2.59l-1.08,0.95l1,-0.03l0.5,-0.59l0.26,0.39l1.29,-0.39l0.11,0.66l0.79,-0.16l-1.34,1.84l-0.89,0.3l0.32,0.39l0.58,-0.16l0.39,0.59l0.34,1.25l-0.53,0.52l0.84,0.79l0.39,-1.61l0.89,-0.26l0.47,-0.92l0.55,-0.03l0.08,0.33l1.37,-1.02l2.07,-3.41l2.55,0.23l0.37,-0.59l0.45,0.03l0.58,-1.58l-0.03,1.21l0.68,0.2l-0.21,0.72l0.5,0.26l-2.15,1.31l4.67,0.07l0.05,0.36l-2.13,0.23l0.95,0.56l-0.03,0.46l-0.81,-0.36l-0.34,0.82l-1.02,0.49l-1.05,-0.72l-2.02,1.93l-0.18,0.92l0.71,1.8l-0.47,4.36l-0.37,0.46l-0.24,0.03l-0.95,1.44l-0.03,0.82l0.37,0.79l3.49,-0.03l0.81,0.36l0.29,2.1l-0.5,-0.2l-0.84,0.62l0.05,0.82l0.55,0.52l1.81,-0.2l1.55,0.49l1.5,2.59l0.29,1.01l-0.66,-0.36l0.5,0.92l1.92,0.79l0.45,1.86l1.94,-0.33l1.42,0.92l0.87,4.56l0,0l0.99,-0.06l0.83,-1.21l1.64,-0.81l7.55,1.76l0.83,-0.61l0.94,0.01l3.17,-1.16l3.01,-2.07l2.58,-0.08l2.99,1.43l1.34,1.8l1.95,1.59l5.1,0.7l0,0l2.76,-0.23l0,0l1.52,-0.91l0,0l1.56,-0.35l0,0l0.7,-0.44l0,0l1.7,-1.24l2.21,0.14l0.91,-1.35l0.89,-0.39l0.17,-2.11l-0.3,-1.08l0,0l1.99,-1.59l0,0l3.09,-1.41l-0.18,-0.45l0.93,-1.14l0.05,-1.04l2.34,-2.57l0.8,1.19l1.48,-0.02l-0.27,2.07l1.6,-3.22l4.3,0.78l4.06,-3.74l2.5,-0.31l0.62,-7.8h1.56l1.56,1.87h1.87l2.66,-6.65l2.65,-0.58l0,0l0.62,-7.44l-0.62,-3.43l1.56,-1.25l-0.31,-7.49l3.43,-8.11l0.31,-4.06l-1.95,-0.71l-0.79,-2.38l2.77,-3.14l0.37,-0.89l2.06,-0.7l0.79,-2.18l-1.27,-1.55l-0.38,-1.35l-2.24,0.17l-0.85,-0.79l-2.28,-0.63l-3.59,-0.12l-4.31,-3.69l-2.69,-0.32l-1.82,-1.46l-2.3,-1.02l-3.64,1.4l-1.28,-0.91l-1.36,-1.93l1.75,-3.51l0.31,-4.39l-1.56,0.55l-0.75,-0.14l-0.66,0.64l-0.63,-0.15l0.12,-2.02l2.16,-1.85l0.54,-1.23l-1.32,-3.5l0.01,-0.92l0.82,-1.04l-0.2,-1.75l-0.65,-1.2l0.59,-1.52l2.26,-0.75l1.8,-2.07l2.62,-0.57l0.69,-0.5l1,-3.97l-0.82,-4.03l-1.44,-1.59l-2.01,-0.39l-2.19,-1.03l-0.08,-2.7l-0.88,-0.6l-3.22,0.34l-3.09,-1.53l-1.25,-1.59l-0.3,-1.43l-0.4,-7.52l-1.42,-1.97l-0.73,-0.09l-1.22,1.14l-0.7,-0.96l-1.4,-0.59l-1.49,0.2l-2.37,0.81l-1.22,1.41l-0.52,-0.29l-1.92,-2.18l-1.36,-0.21l-1.19,-1.19l-0.31,-1.97l0.54,-1.12l0.25,-2.23l1.09,-0.92l-1.97,-0.88l-0.57,0.04l-1.41,1.31l-1.68,2.4l-2.44,0.16l-1.64,-0.83l-0.51,-0.94l0.11,-2.25l-0.99,0.31l-0.18,-1.08l0.62,-1.87l-1.56,-1.25l-0.94,-5.3h-4.68v-1.87l1.25,-0.94l-4.74,-4.42L159.79,121.8zM93.95,192.13l-1.08,-0.79l0.03,-0.5l-2.49,-0.36l-2.1,-1.65l-0.03,-2.31l1.02,-2.08l-0.92,-0.56l-3.23,1.32l-0.08,3.41l-0.24,0.4l-1.02,-0.23l-0.26,0.4l1.86,1.72l2.73,1.45l1.02,1.45l-0.26,2.08l1.26,0.63l-0.18,0.43h0.74l-0.21,-0.76l3.05,-1.98L93.95,192.13zM107.53,195.73l0.21,-0.56l0.76,-0.2l-0.03,-0.46l-1.13,-0.46l-0.34,-0.89l0.79,-3.17l-0.87,-0.76l-0.29,-0.96l0.13,-1.22l0.97,-1.42l0.13,-1.09l-1.37,-1.69l0.16,-1.03l-0.5,-1.26l-4.52,-2.95l-2.15,-2.78l-1,-0.23l-0.58,0.79l-2.36,0.17l-0.84,2.02l-3.49,1.89l0.6,3.44l-0.42,2.68l0.34,3.97l2.99,0.79l0.39,0.56l-0.24,0.79l1.36,1.32l0.45,1.92l-0.16,1.49l-0.71,0.89l-3.18,0.59l0.81,0.53l0.34,1.55l-0.71,0.46l0.13,0.33l0.42,-0.07l1.26,1.19l1.26,0.2l0.34,0.63l5.36,0.36l0.03,-1.02l0.89,0.43l0.58,-0.92l2.21,0.99l0.95,-0.07l0.81,-1.65l1.37,-0.4l0.05,-0.56L107.53,195.73zM104.45,239.62l-0.92,0.13l-0.6,-0.76l-1.55,0.56l-0.39,-0.13l-0.34,0.59l0.16,0.69l-1.55,-0.13l-0.16,1.25l-0.55,0.26l0.45,0.3l0.37,1.68l-0.5,0.16l0.16,1.71l1.89,-0.03l0.32,0.39l-0.26,0.53l0.63,-0.07l0.45,-0.72l0.89,-0.39l-0.26,-0.85l1.52,-0.1v-0.49l-0.52,0.13l0.03,-0.53l-0.66,-0.43l0.74,-0.3l0.52,0.26l-0.21,-0.76l1,0.72l0.42,-0.43l0.26,-1.54l-0.47,-0.89L104.45,239.62z"/>
		<path id="KR-42" title="Gangwon" class="land" d="M281.2,81.07L282.62,83.88L284.77,86.63L285.35,86.46L286.13,88.2L286.11,88.93L285.58,89.47L286.26,90.27L286.19,90.81L287.34,91.81L286.76,93.11L287.13,93.91L287.92,94.11L287.76,95.58L288.76,96.35L288.58,97.19L289.26,97.56L291.46,100.46L291.02,101.03L290.86,100.73L290.34,100.96L290.28,102.66L294.06,108.47L295.8,110.27L295.17,110.71L295.43,112.37L297.03,114.61L297,116.07L299.32,118.07L299.08,119.77L300.08,121.64L300.16,123.7L303.57,128.7L304.15,128.9L303.41,129.3L303.33,130.03L305.35,132.76L304.44,133.75L304.93,135.62L304.78,136.55L305.35,137.81L306.27,139.11L306.96,139.37L307.93,141.5L309.35,143.23L310.95,144.39L311.66,147.41L315.7,151.73L316.8,151.83L316.3,153.72L320.06,159.89L321.74,161.09L321.66,162.15L324.94,165.5L325.76,165.89L326.15,166.75L325.68,168.38L327.54,171.03L330.06,173.41L330.3,174.87L339.8,184.89L343.51,189.92L347.26,193.36L346.97,195.83L346.42,196L345.9,197.05L346.05,198.01L348.44,201.25L352.93,204.94L353.3,206.76L352.36,208.7L353.62,210.95L353.3,211.64L354.69,213.62L354.3,213.88L356.06,215.26L359.47,219.18L360.58,224.22L365.41,227.97L365.49,230.21L366.4,231.36L367.11,234.85L368.95,236.46L369.98,236.36L370.45,238.89L371.08,238.63L372.1,238.96L372.05,239.62L372.92,240.04L372.65,241.85L374.78,243.79L374.83,244.84L375.46,245.27L373.99,246.38L374.7,248.15L373.86,250.55L374.41,253.14L375.62,254.36L376.57,256.82L377.14,257.08L376.83,258.26L377.64,259.1L377.64,259.1L373.37,259.81L373.37,259.81L371.5,262L369,262.93L366.19,265.43L366.19,265.43L364.63,267.61L364.63,268.86L364.63,268.86L366.19,271.67L359.65,271.83L359.65,271.83L357,269.56L354.04,268.53L351.43,268.13L348.89,270.65L347.88,270.45L344.81,268.71L341.46,268.03L340.29,268L338.11,268.75L337.43,267.42L335.71,266.74L335.71,266.74L334.78,267.34L332.8,271.05L332.8,271.05L331.87,272.29L327.81,272.29L324.38,269.49L321.57,267.93L319.55,268.11L318.9,270.43L319.01,272.83L318.64,273.58L317.89,273.95L316.43,272.99L314.83,272.57L312.91,272.83L309.82,270.73L308.66,270.49L308.66,270.49L306.92,269.14L306.92,269.14L306.28,268.35L306.28,268.35L304.14,268.61L304.14,268.61L302.78,268.56L298.83,267.29L298.83,267.29L297.21,266.57L295.24,264.37L293.57,263.85L293.23,264.28L293.23,264.28L292.29,264.71L292.29,264.71L289,265.28L288.18,265.04L287.87,265.63L287.11,265.75L286.29,264.36L286.29,264.36L286.11,263.53L286.11,263.53L284.96,263L284.96,263L284.5,262.71L284.5,262.71L284.51,260.76L284.51,260.76L284.6,260.09L284.6,260.09L283.64,259.28L282.18,259.61L279.76,259.42L279.76,259.42L278.9,259.47L277.7,260.72L277.7,260.72L276.24,260.86L275.74,261.38L275.74,261.38L275.04,261.85L272.73,260.08L272.73,260.08L272.07,258.38L273.59,257.12L273.59,257.12L275.33,256.36L275.33,256.36L277.69,253.63L277.79,252.27L277.21,251.74L276.24,251.74L274.87,252.57L274.87,252.57L273.82,252.83L273.82,252.83L272.11,252.6L270.63,250.87L268.51,250.44L266.53,248.93L264.07,249.52L262.95,250.45L262.28,251.96L261.6,252.06L258.63,251.05L257.04,252.83L254.95,254.13L254.95,254.13L252.82,254.5L252.82,254.5L250.78,255.32L250.78,255.32L249.88,254.99L249.88,254.99L249.54,254.52L249.6,251.15L249.6,251.15L247.83,247.84L247.83,247.84L245.78,247.32L245.78,247.32L243.56,247.4L242.06,248.34L242.06,248.34L239.68,250.03L239.22,251.03L239.49,253.73L240.21,255.72L239.79,257.52L237.75,258.31L237.31,259.26L236.64,259.62L234.31,258.47L231.27,258.56L229.83,260.44L227.64,261.37L223.59,258.25L222.97,254.77L222.97,254.77L223.59,247.33L222.96,243.9L224.52,242.65L224.21,235.16L227.64,227.05L227.95,222.99L226,222.28L225.22,219.9L227.99,216.76L228.35,215.87L230.42,215.17L231.21,212.98L229.94,211.43L229.56,210.08L227.31,210.25L226.46,209.46L224.18,208.84L220.59,208.72L216.28,205.02L213.59,204.7L211.78,203.24L209.48,202.22L205.84,203.62L204.56,202.71L203.2,200.77L204.95,197.26L205.26,192.87L203.7,193.43L202.96,193.29L202.3,193.93L201.67,193.78L201.79,191.75L203.95,189.9L204.49,188.67L203.17,185.17L203.17,184.25L203.99,183.21L203.79,181.46L203.14,180.26L203.73,178.74L206,177.98L207.79,175.92L210.41,175.35L211.11,174.85L212.11,170.88L211.29,166.84L209.84,165.25L207.83,164.87L205.64,163.83L205.56,161.13L204.67,160.53L201.46,160.87L198.36,159.34L197.11,157.75L196.8,156.32L196.4,148.8L194.98,146.83L194.24,146.74L193.02,147.88L192.32,146.92L190.93,146.33L189.44,146.52L187.07,147.33L185.86,148.74L185.33,148.46L183.42,146.28L182.06,146.06L180.87,144.87L180.55,142.9L181.1,141.78L181.35,139.55L182.44,138.63L180.47,137.75L179.9,137.79L178.49,139.1L176.81,141.49L174.37,141.65L172.73,140.82L172.22,139.89L172.34,137.63L171.34,137.94L171.16,136.87L171.79,135L170.23,133.75L169.29,128.44L164.61,128.44L164.61,126.57L165.86,125.63L161.12,121.22L161.12,121.22L162.11,120.04L165.16,117.96L166.27,117.73L168.53,118.34L172.23,117.06L175.22,115.29L178.63,115.81L180.24,117L181.74,116.6L183.43,116.89L184.57,115.94L186.66,115.95L188.54,114.93L190.58,114.82L192.55,115.65L193.8,116.72L195.37,116.56L197.59,117.4L199.81,118.82L205.12,115.61L208.05,114.58L209.5,114.9L210.66,116.02L212.16,116.11L214.44,115.61L217.11,116.28L219.06,114.97L224.85,115.26L227.39,113.86L228.01,114.22L228.72,116.01L231.06,118.46L233.19,117.54L234.98,117.35L235.8,116.9L237.1,115.11L243.39,116.95L245.17,116.52L251.62,117.96L254.58,117.5L257.56,115.06L260.2,115.16L260.9,114.78L263.83,111.82L267.7,109.37L268.98,107.26L270.75,106.11L274.52,102.42L276.68,97.81L276.45,96.37L277.49,93.22L276.97,84.14L277.53,83.4z"/>
		<path id="KR-43" title="North Chungcheong" class="land" d="M214.22,387.59L211.73,381.67L209.54,379.79L209.23,376.99L209.23,376.99L210.48,374.18L210.17,371.06L208.3,367.94L208.3,367.94L205.5,368.2L204.46,367.35L201.54,366.28L200.49,362.63L201.74,356.39L201.74,356.39L202.68,350.77L202.68,350.77L204.24,349.21L205.49,348.9L204.24,346.72L203.47,346.51L203.79,344.88L202.01,344.47L201.36,343.72L201.12,341.1L201.12,341.1L198.62,338.6L198.62,338.6L195.76,341.26L195.76,341L195.76,341L195.83,340.36L195.83,340.36L196.15,339.06L194.76,338.88L194.76,338.88L194.15,339.52L194.15,339.52L193.17,341.8L192.69,341.89L192.69,341.89L192.38,341.72L192.38,341.72L191.13,336.42L187.18,336.84L186.79,336.29L186.08,336.15L185.68,336.48L185.68,336.48L185.1,337.26L185.1,337.26L186.97,331.16L185.89,330.02L186.72,328.19L186.81,326.74L183.47,326.54L183.02,325.19L183.02,325.19L183.02,322.38L180.21,318.95L182.4,318.32L182.71,315.51L182.71,315.51L181.15,313.33L186.14,305.53L189.89,305.84L191.45,303.97L190.2,300.22L187.08,298.04L184.2,298.04L184.2,298.04L183.12,297.56L183.28,295.57L183.28,295.57L183.22,295.14L182.69,295.08L182.69,295.08L181.2,294.37L181.2,294.37L180.97,291.71L178.14,289.79L177.23,287.37L179.99,287.14L179.99,287.14L181.51,286.23L181.51,286.23L183.07,285.88L183.07,285.88L183.77,285.44L183.77,285.44L185.48,284.2L187.69,284.34L188.59,282.98L189.48,282.59L189.65,280.48L189.35,279.39L189.35,279.39L191.34,277.8L191.34,277.8L194.43,276.39L194.25,275.94L195.18,274.79L195.23,273.76L197.57,271.19L198.38,272.38L199.86,272.36L199.59,274.43L201.18,271.2L205.49,271.98L209.54,268.24L212.04,267.93L212.66,260.13L214.22,260.13L215.78,262L217.66,262L220.32,255.35L223.03,254.75L223.59,258.25L227.64,261.37L229.83,260.44L231.27,258.56L234.31,258.47L236.23,259.55L237.31,259.26L237.75,258.31L239.79,257.52L240.21,255.72L239.49,253.73L239.22,251.03L239.68,250.03L242.06,248.34L242.06,248.34L243.56,247.4L245.78,247.32L245.78,247.32L247.83,247.84L247.83,247.84L249.6,251.15L249.6,251.15L249.54,254.52L249.88,254.99L249.88,254.99L250.78,255.32L250.78,255.32L252.82,254.5L252.82,254.5L254.95,254.13L254.95,254.13L257.04,252.83L258.63,251.05L261.6,252.06L262.28,251.96L262.95,250.45L264.07,249.52L266.53,248.93L268.51,250.44L270.63,250.87L272.11,252.6L273.82,252.83L273.82,252.83L274.87,252.57L274.87,252.57L276.24,251.74L277.21,251.74L277.79,252.27L277.69,253.63L275.33,256.36L275.33,256.36L273.59,257.12L273.59,257.12L272.07,258.38L272.73,260.08L272.73,260.08L275.04,261.85L275.74,261.38L275.74,261.38L276.24,260.86L277.7,260.72L277.7,260.72L278.9,259.47L279.76,259.42L279.76,259.42L282.18,259.61L283.64,259.28L284.6,260.09L284.6,260.09L284.51,260.76L284.51,260.76L284.5,262.71L284.5,262.71L284.96,263L284.96,263L286.11,263.53L286.11,263.53L286.29,264.36L286.29,264.36L287.11,265.75L287.87,265.63L288.18,265.04L289,265.28L292.29,264.71L292.29,264.71L293.23,264.28L293.23,264.28L293.57,263.85L295.24,264.37L297.21,266.57L298.83,267.29L298.83,267.29L302.78,268.56L304.14,268.61L304.14,268.61L306.28,268.35L306.28,268.35L306.92,269.14L306.92,269.14L308.66,270.49L307.38,271.77L307.38,271.77L306.45,272.65L305.98,272.42L305.98,272.42L305.06,272.09L305.06,272.09L304.31,272.4L304.31,272.4L302.86,274.54L302.03,275.02L302.03,275.02L301.41,275.3L301.41,275.3L298.12,278.55L295.32,279.35L295.32,279.35L294.53,280.6L294.53,280.6L294.07,281.6L290.99,283.35L290.9,284.23L289.41,285.7L287.83,289.01L287.83,289.01L286.99,290.58L286.99,290.58L286.94,291.91L288.26,292.52L288.26,292.52L288.79,293.34L288.79,293.34L289.05,295.44L286.21,299.33L286.21,299.33L284.78,299.63L284.78,299.63L282.67,299.78L282.67,299.78L282.21,300.11L282.21,300.11L281.29,301.14L278.85,301.09L278.85,301.09L277.2,301.53L276.65,301.27L276.65,301.27L275.62,298.48L274.16,296.35L270.92,294.5L269.74,292.53L269.74,292.53L268.66,293.81L268.38,294.82L268.38,294.82L268.07,295.58L266.94,295.92L266.7,298.51L266.7,298.51L266.5,299.15L266.5,299.15L266.13,299.72L260.92,298.42L260.43,297.98L260.43,297.98L260.01,297.35L260.01,297.35L258.94,296.98L258.33,297.6L258.33,297.6L256.95,298.75L256.95,298.75L255.8,300.69L255.8,300.69L254.42,300.88L254.42,300.88L252.78,299.13L252.27,299.44L249.56,305.78L249.56,305.78L249.41,306.13L249.41,306.13L252.65,310.58L252.8,311.38L251.61,311.48L248.2,310.47L248.2,310.47L247.02,309.8L245.81,310.39L245.81,310.39L243.62,309.37L243.62,309.37L242.5,308.75L242.5,308.75L241.33,311.09L239.62,312.49L238.02,313.53L236.02,313.66L236.02,313.66L235.37,313.91L235.37,313.91L233.69,316.29L234.17,318.51L234.17,318.51L233.72,319.21L233.72,319.21L231.52,321.12L231.52,321.12L230.94,321.85L230.94,321.85L229.99,323.35L229.18,323.4L229.18,323.4L227.62,323.75L227.62,323.75L226.8,324.75L226.63,325.66L227.35,326.76L232.72,327.89L233.94,329.11L233.8,330.04L233.8,330.04L234.18,331.6L234.76,332.01L234.76,332.01L236.4,332.69L236.77,333.37L236.35,335.08L236.35,335.08L236.22,335.64L236.22,335.64L234.33,335.97L234.33,335.97L233.9,337.31L233.9,337.31L234.2,340.9L233.52,343.6L234.12,344.77L234.12,346.07L232.83,348.09L234.15,351.34L234.15,351.34L234.65,351.65L234.65,351.65L233.64,354.21L230.98,356.52L230.98,356.52L230.91,360.8L231.28,361.59L233.07,362.58L233.07,362.58L234.91,361.51L236.08,360L236.48,360.02L236.95,361.47L239.19,362.26L239.45,362.95L239.45,362.95L239.54,363.45L239.54,363.45L240.52,363.77L240.52,363.77L241.3,364.52L241.3,364.52L241.63,365.01L242.47,364.92L242.47,364.92L244.46,364.08L244.46,364.08L246.69,363.29L248.71,363.99L248.71,363.99L249.33,365.06L249.33,365.06L248.98,366.12L249.48,368.23L249.48,368.23L250.05,369.53L250.74,370.1L250.74,370.1L250.65,370.89L249.5,371.45L247.03,369.97L244.62,371.4L243.96,372.25L243.44,373.14L243.52,374.32L244.61,376.1L244.1,377.51L244.2,379.67L242.45,381.13L242.63,382.05L241.63,383.73L241.41,385.77L239.57,388.37L238.81,388.7L237.93,388.03L236.69,388.27L232.87,391.91L230.87,389.69L229.97,389.63L229.97,389.63L228.6,390.08L228.6,390.08L225.87,391.7L225.87,391.7L224.98,392.03L224.98,392.03L224.62,392.94L224.62,392.94L222.02,392.94L221.86,392.02L221.86,392.02L220.16,390.98L220.16,390.98L218.99,390.69L218.99,390.69L216.73,390.13L216.73,390.13L216.06,389.56L216.06,389.56L215.01,387.29z"/>
		<path id="KR-44" title="South Chungcheong" class="land" d="M91.38,348.77h0.66l0.21,1.69l0.95,0.71l-0.79,0.1l-0.11,0.91l-1.31,-0.62l-0.47,0.68l-0.24,-1.4l1.08,-0.75L91.38,348.77zM98.02,345.26l1.02,0.1l0.16,1.04l0.47,0.1l-0.73,0.78l1.16,0.58l1.58,0.16l-0.16,0.94l-1.42,-0.13l-0.18,-0.62l-1.65,-0.45l-1.63,0.03l-0.39,-0.58l-1.21,0.42l-0.66,-0.26l-0.03,-1.07l0.74,-0.55l1.44,0.49l1.08,0.91l-0.53,-1.43L98.02,345.26zM91.4,318.27l0.42,-0.16l0.92,0.78l-0.05,1.14l0.79,0.62l-0.18,0.75l0.42,0.1l-0.05,1.14l-1.37,0.46l-0.16,0.52l1.47,0.68l0.34,1.76l-0.24,1.5l1.02,1.37l-0.1,0.59l-0.71,0.29l0.26,0.33l1.16,-0.03l0.81,0.94l0.21,1.11l-0.53,0.36l-0.03,0.55l1.1,-0.33l-0.16,1.82l0.87,1.43l-1,1.43l0.79,0.2l0.71,1.43l0.87,0.13l-0.21,0.97l0.47,1.17l-1.29,1.01l0.58,1.36l-0.84,0.13l0.21,-0.46l-0.34,-0.45l-0.5,0.29l-0.16,-1.17h-1.21l0.37,-0.75l-1.92,-0.03l-0.05,0.58l-0.92,0.52l-0.5,-0.62l-0.42,0.07l-0.13,-1.01l-0.68,0.03l0.55,-1.89l-2,0.2l-0.45,-0.59l0.24,-0.65l-0.37,-0.98l0.76,-1.72l-1.37,0.39l0.11,-0.49l0.68,-0.29l0.29,-2.11l-0.05,-0.65l-0.6,-0.29l0.29,-0.91l-0.52,-0.2l0.32,-5.21l-1.44,-1.85l-0.21,-1.53l0.89,-0.85l0.05,-0.81L91.4,318.27zM97.84,265.47l2.36,0.39l0.53,0.82l-0.03,1.28l-2.81,0.3l0.29,-0.98l-0.6,-1.08L97.84,265.47zM107.24,266.13l1.55,2.26l2.21,0.36l6.8,4.06l1.6,0.39l4.75,-0.16l0.37,0.79l7.51,2.03l0.29,0.43l-0.37,0.95l1.58,2.68l-0.31,0.42l0.42,0.79l0.37,0.56l0.29,-0.33l0.47,0.16l0.53,3.37l0.94,1.08l0.03,0.56l3.57,0.65l1.71,-0.78l2.78,-0.28l0,0l0.99,-0.06l0.83,-1.21l1.64,-0.81l7.55,1.76l0.83,-0.61l0.94,0.01l3.17,-1.16l3.01,-2.07l2.58,-0.08l2.99,1.43l1.34,1.8l1.95,1.59l5.1,0.7l0,0l0.91,2.42l2.84,1.92l0.23,2.66l0,0l1.48,0.71l0,0l0.53,0.07l0.06,0.42l0,0l-0.16,1.99l1.08,0.48l0,0h2.88l3.12,2.18l1.25,3.74l-1.56,1.87l-3.75,-0.31l-4.99,7.8l1.56,2.18l0,0l-0.31,2.81l-2.18,0.62l2.81,3.43v2.81l0,0l0.45,1.35l3.34,0.2l-0.09,1.46l-0.83,1.82l1.08,1.14l-1.87,6.1l0,0l0.58,-0.78l0,0l0.4,-0.33l0.71,0.15l0.62,0.86l0,0l0.31,0.04l-0.33,3.29l-0.94,2.81l-3.43,1.56l-0.91,0.04l0,0l-2.52,0.58l0,0l0.31,8.74l-2.18,2.5l0.31,4.06l2.18,1.87l0.31,3.43l1.56,2.18l2.5,0.94l0.94,3.12h1.25l0.94,-2.18l0.62,-4.99l-0.31,-3.12h1.56l0.62,1.56v1.87l2.18,3.74l3.75,2.18l2.18,-2.81l3.35,-2.18l0,0l2.8,0.98l1.03,0.85l2.8,-0.27l0,0l1.87,3.12l0.31,3.12l-1.25,2.81l0,0l0.31,2.81l2.18,1.87l1.56,3.12l0.93,2.8l-0.31,0.33l0,0v2.49l-2.81,2.81l-1.56,-1.25l-2.54,-1.2l-1.89,1l0,0l-1.03,0.18l-0.16,2.21l0,0l-0.94,1.87l-3.12,0.62l-3.43,-0.31l-0.62,-2.81l0,0l-0.07,-2.19l0,0l-0.61,-0.16l0,0l-3.06,1.72l0,0h-1.25l-1.87,-4.37l-0.35,-2.77l-2.96,-5.1l0,0l-1.13,-1.63l-2.42,2.02l0,0l-4.37,-0.31l0.62,2.5l-5.3,0.31l-1.73,-1.73l-1.12,-0.16l-1.9,1.15l-2.3,0.23l-1.48,0.72l-2.55,-0.18l-0.51,-0.81l-0.03,-1.21l-2.44,-0.19l-0.31,-3.74l-2.19,-2.01l-1.27,0.38l-3.76,-2.27l-3.68,-0.67l-2.68,2.01l-2.01,0.67l0,8.44l-7.18,3.43l-4.37,1.56l-1.48,-1.36l-1.31,0.56l0,0l-0.68,-0.33l-0.32,1.03l-1.08,1.13l-4.28,-1.07l-1.13,0.61l-0.73,-0.74l0.42,-1.07l-0.47,-1.07l0.68,-0.06l0.08,-0.42l-2.26,-2.59l-1.05,0.1l-0.29,-2.81l-1.05,0.19l0.68,-1.03l0.73,0.42l1.1,-0.81l-0.08,-0.52l-1.18,0.32l0.03,-0.84l-1.05,-0.49l-0.81,0.71l-1.34,-2.94l-2.55,-2.2l-1.39,1.39l-0.13,-0.91l-0.79,-0.94l-2.63,-0.94l-1.18,0.32l-0.29,2.4l-1.08,-0.97l0.03,-2.75l0.81,0.45l1.55,-0.23l0.76,-0.97l-0.18,-2.23l1.1,-1.59l0.39,-0.03l-0.89,-4.5l0.66,-0.78l0.31,-1.75l0.71,-0.13l0.05,-0.49l-0.58,-0.97l-0.73,-0.29l0.5,-0.32l-1.18,-2.24l-0.92,0.13l-0.42,-1.62l-1.23,-1.59l0.45,-0.52l0.84,0.42l0.63,-0.81l2.23,-0.78l0.29,-0.68l0.92,-0.55l2.6,0.23l-3.26,-0.68l-4.73,-3.28l-1.79,-0.03l0.42,-3.22l0.92,-1.92l1,-0.23l1.39,-1.43h1.26l0.66,-1.2l0.68,0.1l0.18,-0.39l1.5,0.1l0.68,-2.76l1.26,0.72l1.44,-0.26l1,-1.24l-2.23,0.78l-1.44,-0.91l-0.5,0.49l-0.5,-0.59l-0.11,0.75l-2.1,1.37l-0.31,1.17l-0.79,0.06l-0.32,1.4l-2.63,1.33l0.26,-1.2l-1.23,-1.3l0.1,-1.79l-0.66,-1.01l0.24,-3.41l0.71,-0.26l0.26,-0.98l1.05,-0.88l2.15,0.81l1.29,1.53l0.76,-0.1l-1.65,-1.56l-1.76,-0.68l-0.74,-0.75l-1.5,1.27l-0.24,-1.01l-2.13,-1.89l0.66,-1.69l-0.74,-3.03l-1,-1.21l-3.47,-1.4l-0.55,-0.94l-3.62,-0.59l-0.68,-0.65l-2.34,1.4l-1.58,1.53l-0.58,1.56l-0.6,-0.59l-1.58,1.86l-0.21,-0.91l-0.81,-0.81l0.66,-1.04l-0.11,-1.89l1.05,-0.75l-0.13,-3.16l-1.08,-2.31l-0.55,-0.42L84,311.88l-0.92,-0.23L83,310.9l0.39,-0.36l-0.53,-0.33l-0.1,-0.72l0.1,-0.69l1.02,-0.68l-0.21,-1.44l0.29,-0.78l0.47,0.13l0.34,-0.42l-0.39,-0.75l-0.87,0.07l-1,1.47l-2.1,-0.1l-0.18,0.98l0.6,0.49l-0.11,0.36l-0.76,0.23l0.13,0.59l-2.31,0.23l0.13,0.65l-0.95,0.23l0.18,0.46l-0.45,0.98l-0.79,0.26L75.62,311l-0.89,0.39l-1.92,-0.29l-0.6,-2.02l0.34,-0.29L72,308.23l0.26,-0.42l1.18,-0.29l-0.29,-0.39l0.95,-0.78l1.29,0.36l1.47,1.11l0.81,0.07l0.97,-0.72l0.58,-1.21l-0.89,-0.65l-1.05,0.65l0.05,-0.65l1.21,-1.7l-1.23,0.59l-1.92,-1.08l1.02,-1.34l-0.87,0.2l-0.31,-0.42l-1.5,-0.07l-0.87,0.55l-1.55,-0.85l0.13,0.91l0.87,0.75l0.16,2.02l-2.68,2.67h-0.42l0.13,-0.78l0.52,-0.29l-0.34,-1.17l1.13,-1.63l-0.39,-0.62l0.31,-0.42l-0.16,-0.29l-0.71,0.29l-0.34,-0.56l0.24,-0.69l-0.39,-0.07l0.18,-0.49l-0.81,-0.46l-0.08,-0.56l1.81,-0.36l-0.03,-1.27l0.42,0.52l1.05,-0.85l0.42,-1.57h-0.5l-0.24,-0.65l0.68,-0.39l-0.03,-0.56l0.66,-0.06l0.18,-1.18l-1.29,-1.21l0.92,-0.03l-0.58,-1.05l0.63,0.29l0.47,-0.75l0.08,1.08l1.02,0.06l-0.5,1.31l0.63,0.59l-0.18,1.83l0.24,0.2l0.45,-0.72l1.29,3.33l0.63,0.36l-0.53,-2.65l-0.84,-0.49l-0.26,-1.21l1.1,-0.1l-1.42,-1.57l1.13,-0.78l0.95,-1.96l-1,0.07l0.05,-1.21h-0.66l-0.08,-0.49l0.89,-0.69l-0.52,-0.69l-0.92,-0.16l0.1,-0.36l1,-0.29l0.45,0.52l0.42,-0.1l0.29,-0.56l-0.29,-0.33l0.68,-0.39l-0.18,-0.98l0.92,0.78l0.55,-0.82l1.55,-0.39l0.26,-0.69l0.5,0.26l0.97,-0.36l-0.45,0.69l2.68,1.31l1.02,-0.23l-0.37,-1.08l0.84,-1.31l-0.29,-3.7l-0.76,-1.44l0.42,-0.72H86l0.52,-0.98l0.52,-0.1l0.26,0.75l-0.45,0.82l-1.02,0.26l0.81,1.05l0.63,-0.36l0.37,0.26l-0.95,1.31v3.24l0.66,0.46l0.13,0.75l0.87,0.26l0.18,1.6h0.97l-0.13,0.56l-1.23,0.03l-0.39,0.36l-0.03,0.82l-0.97,1.21l-0.03,1.01l-0.63,0.62l-0.08,1.18l2.1,0.46l-0.16,0.69l-1.92,0.95l-1.13,-0.03l-0.24,0.75l0.68,0.42l-0.21,1.31l0.5,0.62l0.52,-0.52l-0.13,-0.59l0.37,-0.26l0.26,0.52l0.31,-0.2l-0.31,-0.62l0.34,-0.42l0.76,0.42l0.87,-0.88l0.53,0.59l0.6,-0.03l0.08,-0.39l-0.95,-0.75l-0.1,-0.75l0.39,-0.42l-0.97,-0.75l1.13,-2.68l0.76,0.46l0.84,-0.16l-0.42,1.7l1.26,1.73l0.81,0.1l-0.89,-1.86l1.44,-1.24l0.03,-1.34l-0.63,-0.88l1.23,-0.72l1.94,0.26l-0.16,-1.54l0.71,0.29l0.1,-0.75l0.97,0.39l0.29,-0.49l1.1,-0.07l0.13,-0.36l-0.45,-0.56l-1.71,-0.26l0.21,-0.79l-0.55,-0.36l-0.08,-0.29l0.87,0.2l0.53,-0.52l-0.03,-1.5l-0.92,-0.43l0.05,0.46l-0.97,0.1l-0.76,0.78l-0.63,-0.56l-0.24,-1.28l-1.18,-0.26l-0.95,0.92l-0.26,-0.26l0.45,-1.08l-0.92,-0.16l-0.18,-1.15l-1.44,0.16l0.21,-1.08